<signallist>
<signal> Id = "0" Name = "m220model_v2/SteeringPosMsg_int" SignalName = "" PortNum = "-1" Width = "1" DataType = "real_T" </signal>
<signal> Id = "1" Name = "m220model_v2/JoystickPosMsg_int" SignalName = "" PortNum = "-1" Width = "1" DataType = "real_T" </signal>
<signal> Id = "2" Name = "m220model_v2/JoystickButton1Msg_bool" SignalName = "" PortNum = "-1" Width = "1" DataType = "real_T" </signal>
<signal> Id = "3" Name = "m220model_v2/JoystickButton2Msg_bool" SignalName = "" PortNum = "-1" Width = "1" DataType = "real_T" </signal>
<signal> Id = "4" Name = "m220model_v2/JoystickButton3Msg_bool" SignalName = "" PortNum = "-1" Width = "1" DataType = "real_T" </signal>
<signal> Id = "5" Name = "m220model_v2/JoystickButton4Msg_bool" SignalName = "" PortNum = "-1" Width = "1" DataType = "real_T" </signal>
<signal> Id = "6" Name = "m220model_v2/JoystickButton5Msg_bool" SignalName = "" PortNum = "-1" Width = "1" DataType = "real_T" </signal>
<signal> Id = "7" Name = "m220model_v2/JoystickButton6Msg_bool" SignalName = "" PortNum = "-1" Width = "1" DataType = "real_T" </signal>
<signal> Id = "8" Name = "m220model_v2/JoystickButton7Msg_bool" SignalName = "" PortNum = "-1" Width = "1" DataType = "real_T" </signal>
<signal> Id = "9" Name = "m220model_v2/JoystickButton8Msg_bool" SignalName = "" PortNum = "-1" Width = "1" DataType = "real_T" </signal>
<signal> Id = "10" Name = "m220model_v2/JoystickButton9Msg_bool" SignalName = "" PortNum = "-1" Width = "1" DataType = "real_T" </signal>
<signal> Id = "11" Name = "m220model_v2/JoystickButton10Msg_bool" SignalName = "" PortNum = "-1" Width = "1" DataType = "real_T" </signal>
<signal> Id = "12" Name = "m220model_v2/HMIVehicleSpeed_mph" SignalName = "" PortNum = "-1" Width = "1" DataType = "real_T" </signal>
<signal> Id = "13" Name = "m220model_v2/HMIVehicleSpeedOvrd_bool" SignalName = "" PortNum = "-1" Width = "1" DataType = "boolean_T" </signal>
<signal> Id = "14" Name = "m220model_v2/RlyEStarters_bool" SignalName = "" PortNum = "-1" Width = "1" DataType = "boolean_T" </signal>
<signal> Id = "15" Name = "m220model_v2/Rly1LightsRight_bool" SignalName = "" PortNum = "-1" Width = "1" DataType = "real_T" </signal>
<signal> Id = "16" Name = "m220model_v2/Rly2LightsLeft_bool" SignalName = "" PortNum = "-1" Width = "1" DataType = "real_T" </signal>
<signal> Id = "17" Name = "m220model_v2/Rly3LightsRearSide_bool" SignalName = "" PortNum = "-1" Width = "1" DataType = "real_T" </signal>
<signal> Id = "18" Name = "m220model_v2/Rly4LightsAux_bool" SignalName = "" PortNum = "-1" Width = "1" DataType = "real_T" </signal>
<signal> Id = "19" Name = "m220model_v2/Rly5FlashRight_bool" SignalName = "" PortNum = "-1" Width = "1" DataType = "real_T" </signal>
<signal> Id = "20" Name = "m220model_v2/Rly6FlashLeft_bool" SignalName = "" PortNum = "-1" Width = "1" DataType = "real_T" </signal>
<signal> Id = "21" Name = "m220model_v2/Rly7Horn_bool" SignalName = "" PortNum = "-1" Width = "1" DataType = "real_T" </signal>
<signal> Id = "22" Name = "m220model_v2/NI9426_1Spare1_bool" SignalName = "" PortNum = "-1" Width = "1" DataType = "real_T" </signal>
<signal> Id = "23" Name = "m220model_v2/Ssr2Brake_bool" SignalName = "" PortNum = "-1" Width = "1" DataType = "real_T" </signal>
<signal> Id = "24" Name = "m220model_v2/Ssr3LoadA_bool" SignalName = "" PortNum = "-1" Width = "1" DataType = "real_T" </signal>
<signal> Id = "25" Name = "m220model_v2/Ssr4FloatFront_bool" SignalName = "" PortNum = "-1" Width = "1" DataType = "real_T" </signal>
<signal> Id = "26" Name = "m220model_v2/Ssr5FloatRight_bool" SignalName = "" PortNum = "-1" Width = "1" DataType = "real_T" </signal>
<signal> Id = "27" Name = "m220model_v2/Ssr6FloatLeft_bool" SignalName = "" PortNum = "-1" Width = "1" DataType = "real_T" </signal>
<signal> Id = "28" Name = "m220model_v2/NI9426_1Spare2_bool" SignalName = "" PortNum = "-1" Width = "1" DataType = "real_T" </signal>
<signal> Id = "29" Name = "m220model_v2/NI9426_1Spare3_bool" SignalName = "" PortNum = "-1" Width = "1" DataType = "real_T" </signal>
<signal> Id = "30" Name = "m220model_v2/NI9426_1Spare4_bool" SignalName = "" PortNum = "-1" Width = "1" DataType = "real_T" </signal>
<signal> Id = "31" Name = "m220model_v2/RlyCPower_bool" SignalName = "" PortNum = "-1" Width = "1" DataType = "boolean_T" </signal>
<signal> Id = "32" Name = "m220model_v2/NI94261Spare5_bool" SignalName = "" PortNum = "-1" Width = "1" DataType = "real_T" </signal>
<signal> Id = "33" Name = "m220model_v2/RlyD2HydFan_bool" SignalName = "" PortNum = "-1" Width = "1" DataType = "real_T" </signal>
<signal> Id = "34" Name = "m220model_v2/LEDAMS_bool" SignalName = "" PortNum = "-1" Width = "1" DataType = "real_T" </signal>
<signal> Id = "35" Name = "m220model_v2/LEDEnable_bool" SignalName = "" PortNum = "-1" Width = "1" DataType = "real_T" </signal>
<signal> Id = "36" Name = "m220model_v2/Buzzer_bool" SignalName = "" PortNum = "-1" Width = "1" DataType = "real_T" </signal>
<signal> Id = "37" Name = "m220model_v2/NI9426_1Spare6_bool" SignalName = "" PortNum = "-1" Width = "1" DataType = "real_T" </signal>
<signal> Id = "38" Name = "m220model_v2/NI9426_1Spare7_bool" SignalName = "" PortNum = "-1" Width = "1" DataType = "real_T" </signal>
<signal> Id = "39" Name = "m220model_v2/RlyFAltEnable_bool" SignalName = "" PortNum = "-1" Width = "1" DataType = "real_T" </signal>
<signal> Id = "40" Name = "m220model_v2/SsrBlower_bool" SignalName = "" PortNum = "-1" Width = "1" DataType = "real_T" </signal>
<signal> Id = "41" Name = "m220model_v2/BackupAlarm_bool" SignalName = "" PortNum = "-1" Width = "1" DataType = "real_T" </signal>
<signal> Id = "42" Name = "m220model_v2/RlyAutoStart_bool" SignalName = "" PortNum = "-1" Width = "1" DataType = "boolean_T" </signal>
<signal> Id = "43" Name = "m220model_v2/RlyJCBEngineKill_bool" SignalName = "" PortNum = "-1" Width = "1" DataType = "real_T" </signal>
<signal> Id = "44" Name = "m220model_v2/NI9426_1Spare8_bool" SignalName = "" PortNum = "-1" Width = "1" DataType = "real_T" </signal>
<signal> Id = "45" Name = "m220model_v2/NI9426_1Spare9_bool" SignalName = "" PortNum = "-1" Width = "1" DataType = "real_T" </signal>
<signal> Id = "46" Name = "m220model_v2/RearEStopButton_bool" SignalName = "" PortNum = "-1" Width = "1" DataType = "real_T" </signal>
<signal> Id = "47" Name = "m220model_v2/NI9476Spare1_bool" SignalName = "" PortNum = "-1" Width = "1" DataType = "real_T" </signal>
<signal> Id = "48" Name = "m220model_v2/NI9476Spare2_bool" SignalName = "" PortNum = "-1" Width = "1" DataType = "real_T" </signal>
<signal> Id = "49" Name = "m220model_v2/NI9476Spare3_bool" SignalName = "" PortNum = "-1" Width = "1" DataType = "real_T" </signal>
<signal> Id = "50" Name = "m220model_v2/NI9476Spare4_bool" SignalName = "" PortNum = "-1" Width = "1" DataType = "real_T" </signal>
<signal> Id = "51" Name = "m220model_v2/NI9476Spare5_bool" SignalName = "" PortNum = "-1" Width = "1" DataType = "real_T" </signal>
<signal> Id = "52" Name = "m220model_v2/NI9476Spare6_bool" SignalName = "" PortNum = "-1" Width = "1" DataType = "real_T" </signal>
<signal> Id = "53" Name = "m220model_v2/NI9476Spare7_bool" SignalName = "" PortNum = "-1" Width = "1" DataType = "real_T" </signal>
<signal> Id = "54" Name = "m220model_v2/NI9476Spare8_bool" SignalName = "" PortNum = "-1" Width = "1" DataType = "real_T" </signal>
<signal> Id = "55" Name = "m220model_v2/NI9476Spare9_bool" SignalName = "" PortNum = "-1" Width = "1" DataType = "real_T" </signal>
<signal> Id = "56" Name = "m220model_v2/NI9476Spare10_bool" SignalName = "" PortNum = "-1" Width = "1" DataType = "real_T" </signal>
<signal> Id = "57" Name = "m220model_v2/NI9476Spare11_bool" SignalName = "" PortNum = "-1" Width = "1" DataType = "real_T" </signal>
<signal> Id = "58" Name = "m220model_v2/NI9476Spare12_bool" SignalName = "" PortNum = "-1" Width = "1" DataType = "real_T" </signal>
<signal> Id = "59" Name = "m220model_v2/NI9476Spare13_bool" SignalName = "" PortNum = "-1" Width = "1" DataType = "real_T" </signal>
<signal> Id = "60" Name = "m220model_v2/NI9476Spare14_bool" SignalName = "" PortNum = "-1" Width = "1" DataType = "real_T" </signal>
<signal> Id = "61" Name = "m220model_v2/NI9476Spare15_bool" SignalName = "" PortNum = "-1" Width = "1" DataType = "real_T" </signal>
<signal> Id = "62" Name = "m220model_v2/NI9476Spare16_bool" SignalName = "" PortNum = "-1" Width = "1" DataType = "real_T" </signal>
<signal> Id = "63" Name = "m220model_v2/NI9476Spare17_bool" SignalName = "" PortNum = "-1" Width = "1" DataType = "real_T" </signal>
<signal> Id = "64" Name = "m220model_v2/CabEstop_bool" SignalName = "" PortNum = "-1" Width = "1" DataType = "real_T" </signal>
<signal> Id = "65" Name = "m220model_v2/MachineEnableSwitch_bool" SignalName = "" PortNum = "-1" Width = "1" DataType = "real_T" </signal>
<signal> Id = "66" Name = "m220model_v2/AutonomySwitch_bool" SignalName = "" PortNum = "-1" Width = "1" DataType = "real_T" </signal>
<signal> Id = "67" Name = "m220model_v2/NI9476Spare18_bool" SignalName = "" PortNum = "-1" Width = "1" DataType = "real_T" </signal>
<signal> Id = "68" Name = "m220model_v2/MainKeySwitch_bool" SignalName = "" PortNum = "-1" Width = "1" DataType = "real_T" </signal>
<signal> Id = "69" Name = "m220model_v2/NI9476Spare19_bool" SignalName = "" PortNum = "-1" Width = "1" DataType = "real_T" </signal>
<signal> Id = "70" Name = "m220model_v2/AutonomyRemoteStopSwitch_bool" SignalName = "" PortNum = "-1" Width = "1" DataType = "real_T" </signal>
<signal> Id = "71" Name = "m220model_v2/NI9476Spare20_bool" SignalName = "" PortNum = "-1" Width = "1" DataType = "real_T" </signal>
<signal> Id = "72" Name = "m220model_v2/NI9476Spare21_bool" SignalName = "" PortNum = "-1" Width = "1" DataType = "real_T" </signal>
<signal> Id = "73" Name = "m220model_v2/HMIHydraulOilSensorOvrd_bool" SignalName = "" PortNum = "-1" Width = "1" DataType = "real_T" </signal>
<signal> Id = "74" Name = "m220model_v2/HMIHydraulOilSensor_qts" SignalName = "" PortNum = "-1" Width = "1" DataType = "real_T" </signal>
<signal> Id = "75" Name = "m220model_v2/HMISeatSwitchOvrd_bool" SignalName = "" PortNum = "-1" Width = "1" DataType = "real_T" </signal>
<signal> Id = "76" Name = "m220model_v2/HMISeatSwitch_bool" SignalName = "" PortNum = "-1" Width = "1" DataType = "real_T" </signal>
<signal> Id = "77" Name = "m220model_v2/NI9426_2Spare1_bool" SignalName = "" PortNum = "-1" Width = "1" DataType = "real_T" </signal>
<signal> Id = "78" Name = "m220model_v2/NI9426_2Spare2_bool" SignalName = "" PortNum = "-1" Width = "1" DataType = "real_T" </signal>
<signal> Id = "79" Name = "m220model_v2/NI9426_2Spare3_bool" SignalName = "" PortNum = "-1" Width = "1" DataType = "real_T" </signal>
<signal> Id = "80" Name = "m220model_v2/NI9426_2Spare4_bool" SignalName = "" PortNum = "-1" Width = "1" DataType = "real_T" </signal>
<signal> Id = "81" Name = "m220model_v2/NI9426_2Spare5_bool" SignalName = "" PortNum = "-1" Width = "1" DataType = "real_T" </signal>
<signal> Id = "82" Name = "m220model_v2/NI9426_2Spare6_bool" SignalName = "" PortNum = "-1" Width = "1" DataType = "real_T" </signal>
<signal> Id = "83" Name = "m220model_v2/NI9426_2Spare7_bool" SignalName = "" PortNum = "-1" Width = "1" DataType = "real_T" </signal>
<signal> Id = "84" Name = "m220model_v2/NI9426_2Spare8_bool" SignalName = "" PortNum = "-1" Width = "1" DataType = "real_T" </signal>
<signal> Id = "85" Name = "m220model_v2/NI9426_2Spare9_bool" SignalName = "" PortNum = "-1" Width = "1" DataType = "real_T" </signal>
<signal> Id = "86" Name = "m220model_v2/NI9426_2Spare10_bool" SignalName = "" PortNum = "-1" Width = "1" DataType = "real_T" </signal>
<signal> Id = "87" Name = "m220model_v2/NI9426_2Spare11_bool" SignalName = "" PortNum = "-1" Width = "1" DataType = "real_T" </signal>
<signal> Id = "88" Name = "m220model_v2/NI9426_2Spare12_bool" SignalName = "" PortNum = "-1" Width = "1" DataType = "real_T" </signal>
<signal> Id = "89" Name = "m220model_v2/NI9426_2Spare13_bool" SignalName = "" PortNum = "-1" Width = "1" DataType = "real_T" </signal>
<signal> Id = "90" Name = "m220model_v2/NI9426_2Spare14_bool" SignalName = "" PortNum = "-1" Width = "1" DataType = "real_T" </signal>
<signal> Id = "91" Name = "m220model_v2/NI9426_2Spare15_bool" SignalName = "" PortNum = "-1" Width = "1" DataType = "real_T" </signal>
<signal> Id = "92" Name = "m220model_v2/NI9426_2Spare16_bool" SignalName = "" PortNum = "-1" Width = "1" DataType = "real_T" </signal>
<signal> Id = "93" Name = "m220model_v2/NI9426_2Spare17_bool" SignalName = "" PortNum = "-1" Width = "1" DataType = "real_T" </signal>
<signal> Id = "94" Name = "m220model_v2/hv_DriveFwd_bool" SignalName = "" PortNum = "-1" Width = "1" DataType = "uint32_T" </signal>
<signal> Id = "95" Name = "m220model_v2/hv_DriveReverse_bool" SignalName = "" PortNum = "-1" Width = "1" DataType = "uint32_T" </signal>
<signal> Id = "96" Name = "m220model_v2/hv_SteerRtA_bool" SignalName = "" PortNum = "-1" Width = "1" DataType = "real_T" </signal>
<signal> Id = "97" Name = "m220model_v2/hv_SteerLfA_bool" SignalName = "" PortNum = "-1" Width = "1" DataType = "real_T" </signal>
<signal> Id = "98" Name = "m220model_v2/hv_SteerLfB_bool" SignalName = "" PortNum = "-1" Width = "1" DataType = "real_T" </signal>
<signal> Id = "99" Name = "m220model_v2/hv_SteerRtB_bool" SignalName = "" PortNum = "-1" Width = "1" DataType = "real_T" </signal>
<signal> Id = "100" Name = "m220model_v2/hv_TracRight_bool" SignalName = "" PortNum = "-1" Width = "1" DataType = "real_T" </signal>
<signal> Id = "101" Name = "m220model_v2/hv_TracLeft_bool" SignalName = "" PortNum = "-1" Width = "1" DataType = "real_T" </signal>
<signal> Id = "102" Name = "m220model_v2/hv_Dk_Ft_Lift_bool" SignalName = "" PortNum = "-1" Width = "1" DataType = "boolean_T" </signal>
<signal> Id = "103" Name = "m220model_v2/hv_Dk_Ft_Low_bool" SignalName = "" PortNum = "-1" Width = "1" DataType = "boolean_T" </signal>
<signal> Id = "104" Name = "m220model_v2/hv_Dk_Rt_Lift_bool" SignalName = "" PortNum = "-1" Width = "1" DataType = "boolean_T" </signal>
<signal> Id = "105" Name = "m220model_v2/hv_Dk_Rt_Low_bool" SignalName = "" PortNum = "-1" Width = "1" DataType = "boolean_T" </signal>
<signal> Id = "106" Name = "m220model_v2/hv_Dk_Unlatch_bool" SignalName = "" PortNum = "-1" Width = "1" DataType = "boolean_T" </signal>
<signal> Id = "107" Name = "m220model_v2/hv_Dk_Lf_Low_bool" SignalName = "" PortNum = "-1" Width = "1" DataType = "boolean_T" </signal>
<signal> Id = "108" Name = "m220model_v2/hv_Dk_Lf_Lift_bool" SignalName = "" PortNum = "-1" Width = "1" DataType = "boolean_T" </signal>
<signal> Id = "109" Name = "m220model_v2/NI9475Spare1_bool" SignalName = "" PortNum = "-1" Width = "1" DataType = "real_T" </signal>
<signal> Id = "110" Name = "m220model_v2/NI9475Spare2_bool" SignalName = "" PortNum = "-1" Width = "1" DataType = "real_T" </signal>
<signal> Id = "111" Name = "m220model_v2/NI9475Spare3_bool" SignalName = "" PortNum = "-1" Width = "1" DataType = "real_T" </signal>
<signal> Id = "112" Name = "m220model_v2/NI9475Spare4_bool" SignalName = "" PortNum = "-1" Width = "1" DataType = "real_T" </signal>
<signal> Id = "113" Name = "m220model_v2/NI9264_1Spare1_int" SignalName = "" PortNum = "-1" Width = "1" DataType = "real_T" </signal>
<signal> Id = "114" Name = "m220model_v2/NI9264_1Spare2_int" SignalName = "" PortNum = "-1" Width = "1" DataType = "real_T" </signal>
<signal> Id = "115" Name = "m220model_v2/NI9264_1Spare3_int" SignalName = "" PortNum = "-1" Width = "1" DataType = "real_T" </signal>
<signal> Id = "116" Name = "m220model_v2/NI9264_1Spare4_int" SignalName = "" PortNum = "-1" Width = "1" DataType = "real_T" </signal>
<signal> Id = "117" Name = "m220model_v2/HMIOvrdPower5VMonitor_bool" SignalName = "" PortNum = "-1" Width = "1" DataType = "real_T" </signal>
<signal> Id = "118" Name = "m220model_v2/HMIOvrdPower12VMonitor_bool" SignalName = "" PortNum = "-1" Width = "1" DataType = "real_T" </signal>
<signal> Id = "119" Name = "m220model_v2/HMIOvrdPower24VMonitor_bool" SignalName = "" PortNum = "-1" Width = "1" DataType = "real_T" </signal>
<signal> Id = "120" Name = "m220model_v2/HMIPower12VMonitor_Vdc" SignalName = "" PortNum = "-1" Width = "1" DataType = "real_T" </signal>
<signal> Id = "121" Name = "m220model_v2/HMIPower24VMonitor_Vdc" SignalName = "" PortNum = "-1" Width = "1" DataType = "real_T" </signal>
<signal> Id = "122" Name = "m220model_v2/HMIPower5VMonitor_Vdc" SignalName = "" PortNum = "-1" Width = "1" DataType = "real_T" </signal>
<signal> Id = "123" Name = "m220model_v2/HMIOvrdHeatExchangeTemp_bool" SignalName = "" PortNum = "-1" Width = "1" DataType = "real_T" </signal>
<signal> Id = "124" Name = "m220model_v2/HMIHeatExchangerTemp_degC" SignalName = "" PortNum = "-1" Width = "1" DataType = "real_T" </signal>
<signal> Id = "125" Name = "m220model_v2/HeatExchangerTemp_mV" SignalName = "" PortNum = "-1" Width = "1" DataType = "real_T" </signal>
<signal> Id = "126" Name = "m220model_v2/HMIOvrdControlBoxTemp_bool" SignalName = "" PortNum = "-1" Width = "1" DataType = "real_T" </signal>
<signal> Id = "127" Name = "m220model_v2/HMIControlBoxTemp_degC" SignalName = "" PortNum = "-1" Width = "1" DataType = "real_T" </signal>
<signal> Id = "128" Name = "m220model_v2/ControlBoxTemp_mV" SignalName = "" PortNum = "-1" Width = "1" DataType = "real_T" </signal>
<signal> Id = "129" Name = "m220model_v2/NI9475Subsystem/Gain" SignalName = "" PortNum = "0" Width = "1" DataType = "uint64_T" </signal>
<signal> Id = "130" Name = "m220model_v2/NI9475Subsystem/Gain2" SignalName = "" PortNum = "0" Width = "1" DataType = "uint64_T" </signal>
<signal> Id = "131" Name = "m220model_v2/M220DynamicsModel/Integrator2" SignalName = "" PortNum = "0" Width = "1" DataType = "real_T" </signal>
<signal> Id = "132" Name = "m220model_v2/M220DynamicsModel/Integrator1" SignalName = "" PortNum = "0" Width = "1" DataType = "real_T" </signal>
<signal> Id = "133" Name = "m220model_v2/M220DynamicsModel/Integrator4" SignalName = "" PortNum = "0" Width = "1" DataType = "real_T" </signal>
<signal> Id = "134" Name = "m220model_v2/M220DynamicsModel/Saturation3" SignalName = "" PortNum = "0" Width = "1" DataType = "real_T" </signal>
<signal> Id = "135" Name = "m220model_v2/M220DynamicsModel/Radians to Degrees/Gain" SignalName = "" PortNum = "0" Width = "1" DataType = "real_T" </signal>
<signal> Id = "136" Name = "m220model_v2/OdometrySubsystem/Math Function" SignalName = "" PortNum = "0" Width = "1" DataType = "real_T" </signal>
<signal> Id = "137" Name = "m220model_v2/OdometrySubsystem/Math Function1" SignalName = "" PortNum = "0" Width = "1" DataType = "real_T" </signal>
<signal> Id = "138" Name = "m220model_v2/M220DynamicsModel/Integrator5" SignalName = "" PortNum = "0" Width = "1" DataType = "real_T" </signal>
<signal> Id = "139" Name = "m220model_v2/OdometrySubsystem/Math Function2" SignalName = "" PortNum = "0" Width = "1" DataType = "real_T" </signal>
<signal> Id = "140" Name = "m220model_v2/OdometrySubsystem/Add" SignalName = "" PortNum = "0" Width = "1" DataType = "real_T" </signal>
<signal> Id = "141" Name = "m220model_v2/OdometrySubsystem/Sqrt" SignalName = "" PortNum = "0" Width = "1" DataType = "real_T" </signal>
<signal> Id = "142" Name = "m220model_v2/OdometrySubsystem/Switch" SignalName = "" PortNum = "0" Width = "1" DataType = "real_T" </signal>
<signal> Id = "143" Name = "m220model_v2/OdometrySubsystem/Divide" SignalName = "" PortNum = "0" Width = "1" DataType = "real_T" </signal>
<signal> Id = "144" Name = "m220model_v2/OdometrySubsystem/Product5" SignalName = "" PortNum = "0" Width = "1" DataType = "real_T" </signal>
<signal> Id = "145" Name = "m220model_v2/OdometrySubsystem/Divide2" SignalName = "" PortNum = "0" Width = "1" DataType = "real_T" </signal>
<signal> Id = "146" Name = "m220model_v2/OdometrySubsystem/Product2" SignalName = "" PortNum = "0" Width = "1" DataType = "real_T" </signal>
<signal> Id = "147" Name = "m220model_v2/OdometrySubsystem/Divide1" SignalName = "" PortNum = "0" Width = "1" DataType = "real_T" </signal>
<signal> Id = "148" Name = "m220model_v2/OdometrySubsystem/Saturation" SignalName = "" PortNum = "0" Width = "1" DataType = "real_T" </signal>
<signal> Id = "149" Name = "m220model_v2/M220TurnSignalLightsSubsystem/Pulse Generator" SignalName = "" PortNum = "0" Width = "1" DataType = "real_T" </signal>
<signal> Id = "150" Name = "m220model_v2/M220TurnSignalLightsSubsystem/Pulse Generator1" SignalName = "" PortNum = "0" Width = "1" DataType = "real_T" </signal>
<signal> Id = "151" Name = "m220model_v2/M220HydraulicOil/Square" SignalName = "" PortNum = "0" Width = "1" DataType = "real_T" </signal>
<signal> Id = "152" Name = "m220model_v2/M220HydraulicOil/Square1" SignalName = "" PortNum = "0" Width = "1" DataType = "real_T" </signal>
<signal> Id = "153" Name = "m220model_v2/M220HydraulicOil/Square2" SignalName = "" PortNum = "0" Width = "1" DataType = "real_T" </signal>
<signal> Id = "154" Name = "m220model_v2/M220HydraulicOil/Switch" SignalName = "" PortNum = "0" Width = "1" DataType = "real_T" </signal>
<signal> Id = "155" Name = "m220model_v2/ConvertVehicleVel2Torques/Product2" SignalName = "" PortNum = "0" Width = "1" DataType = "real_T" </signal>
<signal> Id = "156" Name = "m220model_v2/ConvertVehicleVel2Torques/Divide1" SignalName = "" PortNum = "0" Width = "1" DataType = "real_T" </signal>
<signal> Id = "157" Name = "m220model_v2/ConvertVehicleVel2Torques/Product3" SignalName = "" PortNum = "0" Width = "1" DataType = "real_T" </signal>
<signal> Id = "158" Name = "m220model_v2/ConvertVehicleVel2Torques/Divide2" SignalName = "" PortNum = "0" Width = "1" DataType = "real_T" </signal>
<signal> Id = "159" Name = "m220model_v2/ConvertVehicleVel2Torques/Math Function" SignalName = "" PortNum = "0" Width = "1" DataType = "real_T" </signal>
<signal> Id = "160" Name = "m220model_v2/ConvertVehicleVel2Torques/Math Function1" SignalName = "" PortNum = "0" Width = "1" DataType = "real_T" </signal>
<signal> Id = "161" Name = "m220model_v2/ConvertVehicleVel2Torques/Add" SignalName = "" PortNum = "0" Width = "1" DataType = "real_T" </signal>
<signal> Id = "162" Name = "m220model_v2/ConvertVehicleVel2Torques/Sqrt" SignalName = "" PortNum = "0" Width = "1" DataType = "real_T" </signal>
<signal> Id = "163" Name = "m220model_v2/ConvertVehicleVel2Torques/Derivative" SignalName = "" PortNum = "0" Width = "1" DataType = "real_T" </signal>
<signal> Id = "164" Name = "m220model_v2/ConvertVehicleVel2Torques/Product" SignalName = "" PortNum = "0" Width = "1" DataType = "real_T" </signal>
<signal> Id = "165" Name = "m220model_v2/M220DynamicsModel/Integrator11" SignalName = "" PortNum = "0" Width = "1" DataType = "real_T" </signal>
<signal> Id = "166" Name = "m220model_v2/ConvertVehicleVel2Torques/Cos" SignalName = "" PortNum = "0" Width = "1" DataType = "real_T" </signal>
<signal> Id = "167" Name = "m220model_v2/ConvertVehicleVel2Torques/Divide" SignalName = "" PortNum = "0" Width = "1" DataType = "real_T" </signal>
<signal> Id = "168" Name = "m220model_v2/ConvertVehicleVel2Torques/Product1" SignalName = "" PortNum = "0" Width = "1" DataType = "real_T" </signal>
<signal> Id = "169" Name = "m220model_v2/HydraulicLiftPressureSubsystem/Lookup Table Dynamic3" SignalName = "" PortNum = "0" Width = "1" DataType = "real_T" </signal>
<signal> Id = "170" Name = "m220model_v2/M220HeatExchangerTempSubsystem/Switch" SignalName = "" PortNum = "0" Width = "1" DataType = "real_T" </signal>
<signal> Id = "171" Name = "m220model_v2/SteeringAndJoyVelocityConvert/Integrator" SignalName = "" PortNum = "0" Width = "1" DataType = "real_T" </signal>
<signal> Id = "172" Name = "m220model_v2/SteeringAndJoyVelocityConvert/Trigonometric Function1" SignalName = "" PortNum = "0" Width = "1" DataType = "real_T" </signal>
<signal> Id = "173" Name = "m220model_v2/M220MachineEnableFunction/Switch" SignalName = "" PortNum = "0" Width = "1" DataType = "real_T" </signal>
<signal> Id = "174" Name = "m220model_v2/SteeringAndJoyVelocityConvert/Product1" SignalName = "" PortNum = "0" Width = "1" DataType = "real_T" </signal>
<signal> Id = "175" Name = "m220model_v2/4TireTractionForces/Tire1TractionForces/VerticalForceTire1/SlipRatioTire1/Divide2" SignalName = "" PortNum = "0" Width = "1" DataType = "real_T" </signal>
<signal> Id = "176" Name = "m220model_v2/4TireTractionForces/Tire1TractionForces/VerticalForceTire1/SlipRatioTire1/Product1" SignalName = "" PortNum = "0" Width = "1" DataType = "real_T" </signal>
<signal> Id = "177" Name = "m220model_v2/NI9853_1 Subsystem/Lookup Table Dynamic" SignalName = "" PortNum = "0" Width = "1" DataType = "real_T" </signal>
<signal> Id = "178" Name = "m220model_v2/SteeringAndJoyVelocityConvert/Trigonometric Function2" SignalName = "" PortNum = "0" Width = "1" DataType = "real_T" </signal>
<signal> Id = "179" Name = "m220model_v2/SteeringAndJoyVelocityConvert/Product2" SignalName = "" PortNum = "0" Width = "1" DataType = "real_T" </signal>
<signal> Id = "180" Name = "m220model_v2/SteeringAndJoyVelocityConvert/Divide" SignalName = "" PortNum = "0" Width = "1" DataType = "real_T" </signal>
<signal> Id = "181" Name = "m220model_v2/4TireTractionForces/Tire1TractionForces/VerticalForceTire1/SlipRatioTire1/Product" SignalName = "" PortNum = "0" Width = "1" DataType = "real_T" </signal>
<signal> Id = "182" Name = "m220model_v2/4TireTractionForces/Tire1TractionForces/VerticalForceTire1/SlipRatioTire1/Add" SignalName = "" PortNum = "0" Width = "1" DataType = "real_T" </signal>
<signal> Id = "183" Name = "m220model_v2/4TireTractionForces/Tire1TractionForces/VerticalForceTire1/SlipRatioTire1/Add1" SignalName = "" PortNum = "0" Width = "1" DataType = "real_T" </signal>
<signal> Id = "184" Name = "m220model_v2/4TireTractionForces/Tire1TractionForces/VerticalForceTire1/SlipRatioTire1/Switch" SignalName = "" PortNum = "0" Width = "1" DataType = "real_T" </signal>
<signal> Id = "185" Name = "m220model_v2/4TireTractionForces/Tire1TractionForces/Add" SignalName = "" PortNum = "0" Width = "1" DataType = "real_T" </signal>
<signal> Id = "186" Name = "m220model_v2/SteeringAndJoyVelocityConvert/Trigonometric Function" SignalName = "" PortNum = "0" Width = "1" DataType = "real_T" </signal>
<signal> Id = "187" Name = "m220model_v2/SteeringAndJoyVelocityConvert/Product" SignalName = "" PortNum = "0" Width = "1" DataType = "real_T" </signal>
<signal> Id = "188" Name = "m220model_v2/4TireTractionForces/Tire1TractionForces/VerticalForceTire1/SlipAngleTire1/Product" SignalName = "" PortNum = "0" Width = "1" DataType = "real_T" </signal>
<signal> Id = "189" Name = "m220model_v2/4TireTractionForces/Tire1TractionForces/VerticalForceTire1/SlipAngleTire1/Subtract" SignalName = "" PortNum = "0" Width = "1" DataType = "real_T" </signal>
<signal> Id = "190" Name = "m220model_v2/4TireTractionForces/Tire1TractionForces/VerticalForceTire1/SlipAngleTire1/Product2" SignalName = "" PortNum = "0" Width = "1" DataType = "real_T" </signal>
<signal> Id = "191" Name = "m220model_v2/4TireTractionForces/Tire1TractionForces/VerticalForceTire1/SlipAngleTire1/Subtract1" SignalName = "" PortNum = "0" Width = "1" DataType = "real_T" </signal>
<signal> Id = "192" Name = "m220model_v2/4TireTractionForces/Tire1TractionForces/VerticalForceTire1/SlipAngleTire1/Divide" SignalName = "" PortNum = "0" Width = "1" DataType = "real_T" </signal>
<signal> Id = "193" Name = "m220model_v2/4TireTractionForces/Tire1TractionForces/VerticalForceTire1/SlipAngleTire1/Trigonometric Function" SignalName = "" PortNum = "0" Width = "1" DataType = "real_T" </signal>
<signal> Id = "194" Name = "m220model_v2/4TireTractionForces/Tire1TractionForces/VerticalForceTire1/SlipAngleTire1/Product1" SignalName = "" PortNum = "0" Width = "1" DataType = "real_T" </signal>
<signal> Id = "195" Name = "m220model_v2/4TireTractionForces/Tire1TractionForces/Trigonometric Function" SignalName = "" PortNum = "0" Width = "1" DataType = "real_T" </signal>
<signal> Id = "196" Name = "m220model_v2/4TireTractionForces/Tire1TractionForces/Divide1" SignalName = "" PortNum = "0" Width = "1" DataType = "real_T" </signal>
<signal> Id = "197" Name = "m220model_v2/4TireTractionForces/Tire1TractionForces/Divide2" SignalName = "" PortNum = "0" Width = "1" DataType = "real_T" </signal>
<signal> Id = "198" Name = "m220model_v2/4TireTractionForces/Tire1TractionForces/VerticalForceTire1/Add" SignalName = "" PortNum = "0" Width = "1" DataType = "real_T" </signal>
<signal> Id = "199" Name = "m220model_v2/4TireTractionForces/Tire1TractionForces/VerticalForceTire1/VerticalTire1ForcePitchRollWeightTransfer/Derivative" SignalName = "" PortNum = "0" Width = "1" DataType = "real_T" </signal>
<signal> Id = "200" Name = "m220model_v2/4TireTractionForces/Tire1TractionForces/VerticalForceTire1/VerticalTire1ForcePitchRollWeightTransfer/Product2" SignalName = "" PortNum = "0" Width = "1" DataType = "real_T" </signal>
<signal> Id = "201" Name = "m220model_v2/4TireTractionForces/Tire1TractionForces/VerticalForceTire1/VerticalTire1ForcePitchRollWeightTransfer/Divide3" SignalName = "" PortNum = "0" Width = "1" DataType = "real_T" </signal>
<signal> Id = "202" Name = "m220model_v2/4TireTractionForces/Tire1TractionForces/VerticalForceTire1/VerticalTire1ForcePitchRollWeightTransfer/Derivative1" SignalName = "" PortNum = "0" Width = "1" DataType = "real_T" </signal>
<signal> Id = "203" Name = "m220model_v2/4TireTractionForces/Tire1TractionForces/VerticalForceTire1/VerticalTire1ForcePitchRollWeightTransfer/Product5" SignalName = "" PortNum = "0" Width = "1" DataType = "real_T" </signal>
<signal> Id = "204" Name = "m220model_v2/4TireTractionForces/Tire1TractionForces/VerticalForceTire1/VerticalTire1ForcePitchRollWeightTransfer/Divide1" SignalName = "" PortNum = "0" Width = "1" DataType = "real_T" </signal>
<signal> Id = "205" Name = "m220model_v2/Derivative" SignalName = "" PortNum = "0" Width = "1" DataType = "real_T" </signal>
<signal> Id = "206" Name = "m220model_v2/4TireTractionForces/Tire1TractionForces/VerticalForceTire1/VerticalTire1ForcePitchRollWeightTransfer/Product3" SignalName = "" PortNum = "0" Width = "1" DataType = "real_T" </signal>
<signal> Id = "207" Name = "m220model_v2/4TireTractionForces/Tire1TractionForces/VerticalForceTire1/VerticalTire1ForcePitchRollWeightTransfer/Add1" SignalName = "" PortNum = "0" Width = "1" DataType = "real_T" </signal>
<signal> Id = "208" Name = "m220model_v2/4TireTractionForces/Tire1TractionForces/VerticalForceTire1/Product1" SignalName = "" PortNum = "0" Width = "1" DataType = "real_T" </signal>
<signal> Id = "209" Name = "m220model_v2/4TireTractionForces/Tire1TractionForces/VerticalForceTire1/Product3" SignalName = "" PortNum = "0" Width = "1" DataType = "real_T" </signal>
<signal> Id = "210" Name = "m220model_v2/4TireTractionForces/Tire1TractionForces/VerticalForceTire1/Square" SignalName = "" PortNum = "0" Width = "1" DataType = "real_T" </signal>
<signal> Id = "211" Name = "m220model_v2/4TireTractionForces/Tire1TractionForces/VerticalForceTire1/Trigonometric Function" SignalName = "" PortNum = "0" Width = "1" DataType = "real_T" </signal>
<signal> Id = "212" Name = "m220model_v2/4TireTractionForces/Tire1TractionForces/VerticalForceTire1/Product4" SignalName = "" PortNum = "0" Width = "1" DataType = "real_T" </signal>
<signal> Id = "213" Name = "m220model_v2/4TireTractionForces/Tire1TractionForces/VerticalForceTire1/Square1" SignalName = "" PortNum = "0" Width = "1" DataType = "real_T" </signal>
<signal> Id = "214" Name = "m220model_v2/4TireTractionForces/Tire1TractionForces/VerticalForceTire1/Add1" SignalName = "" PortNum = "0" Width = "1" DataType = "real_T" </signal>
<signal> Id = "215" Name = "m220model_v2/4TireTractionForces/Tire1TractionForces/VerticalForceTire1/Sqrt" SignalName = "" PortNum = "0" Width = "1" DataType = "real_T" </signal>
<signal> Id = "216" Name = "m220model_v2/4TireTractionForces/Tire1TractionForces/VerticalForceTire1/Product2" SignalName = "" PortNum = "0" Width = "1" DataType = "real_T" </signal>
<signal> Id = "217" Name = "m220model_v2/4TireTractionForces/Tire1TractionForces/VerticalForceTire1/Divide" SignalName = "" PortNum = "0" Width = "1" DataType = "real_T" </signal>
<signal> Id = "218" Name = "m220model_v2/4TireTractionForces/Tire1TractionForces/Switch" SignalName = "" PortNum = "0" Width = "1" DataType = "real_T" </signal>
<signal> Id = "219" Name = "m220model_v2/4TireTractionForces/Tire1TractionForces/Product1" SignalName = "" PortNum = "0" Width = "1" DataType = "real_T" </signal>
<signal> Id = "220" Name = "m220model_v2/4TireTractionForces/Tire1TractionForces/Product2" SignalName = "" PortNum = "0" Width = "1" DataType = "real_T" </signal>
<signal> Id = "221" Name = "m220model_v2/4TireTractionForces/Tire2TractionForces/VerticalForceTire2/SlipRatioTire2/Divide2" SignalName = "" PortNum = "0" Width = "1" DataType = "real_T" </signal>
<signal> Id = "222" Name = "m220model_v2/4TireTractionForces/Tire2TractionForces/VerticalForceTire2/SlipRatioTire2/Product1" SignalName = "" PortNum = "0" Width = "1" DataType = "real_T" </signal>
<signal> Id = "223" Name = "m220model_v2/4TireTractionForces/Tire2TractionForces/VerticalForceTire2/SlipRatioTire2/Product" SignalName = "" PortNum = "0" Width = "1" DataType = "real_T" </signal>
<signal> Id = "224" Name = "m220model_v2/4TireTractionForces/Tire2TractionForces/VerticalForceTire2/SlipRatioTire2/Add" SignalName = "" PortNum = "0" Width = "1" DataType = "real_T" </signal>
<signal> Id = "225" Name = "m220model_v2/4TireTractionForces/Tire2TractionForces/VerticalForceTire2/SlipRatioTire2/Add1" SignalName = "" PortNum = "0" Width = "1" DataType = "real_T" </signal>
<signal> Id = "226" Name = "m220model_v2/4TireTractionForces/Tire2TractionForces/VerticalForceTire2/SlipRatioTire2/Switch" SignalName = "" PortNum = "0" Width = "1" DataType = "real_T" </signal>
<signal> Id = "227" Name = "m220model_v2/4TireTractionForces/Tire2TractionForces/Add" SignalName = "" PortNum = "0" Width = "1" DataType = "real_T" </signal>
<signal> Id = "228" Name = "m220model_v2/4TireTractionForces/Tire2TractionForces/VerticalForceTire2/SlipAngleTire2/Product" SignalName = "" PortNum = "0" Width = "1" DataType = "real_T" </signal>
<signal> Id = "229" Name = "m220model_v2/4TireTractionForces/Tire2TractionForces/VerticalForceTire2/SlipAngleTire2/Subtract" SignalName = "" PortNum = "0" Width = "1" DataType = "real_T" </signal>
<signal> Id = "230" Name = "m220model_v2/4TireTractionForces/Tire2TractionForces/VerticalForceTire2/SlipAngleTire2/Product2" SignalName = "" PortNum = "0" Width = "1" DataType = "real_T" </signal>
<signal> Id = "231" Name = "m220model_v2/4TireTractionForces/Tire2TractionForces/VerticalForceTire2/SlipAngleTire2/Subtract1" SignalName = "" PortNum = "0" Width = "1" DataType = "real_T" </signal>
<signal> Id = "232" Name = "m220model_v2/4TireTractionForces/Tire2TractionForces/VerticalForceTire2/SlipAngleTire2/Divide" SignalName = "" PortNum = "0" Width = "1" DataType = "real_T" </signal>
<signal> Id = "233" Name = "m220model_v2/4TireTractionForces/Tire2TractionForces/VerticalForceTire2/SlipAngleTire2/Trigonometric Function" SignalName = "" PortNum = "0" Width = "1" DataType = "real_T" </signal>
<signal> Id = "234" Name = "m220model_v2/4TireTractionForces/Tire2TractionForces/VerticalForceTire2/SlipAngleTire2/Product1" SignalName = "" PortNum = "0" Width = "1" DataType = "real_T" </signal>
<signal> Id = "235" Name = "m220model_v2/4TireTractionForces/Tire2TractionForces/Trigonometric Function" SignalName = "" PortNum = "0" Width = "1" DataType = "real_T" </signal>
<signal> Id = "236" Name = "m220model_v2/4TireTractionForces/Tire2TractionForces/Divide1" SignalName = "" PortNum = "0" Width = "1" DataType = "real_T" </signal>
<signal> Id = "237" Name = "m220model_v2/4TireTractionForces/Tire2TractionForces/Divide2" SignalName = "" PortNum = "0" Width = "1" DataType = "real_T" </signal>
<signal> Id = "238" Name = "m220model_v2/4TireTractionForces/Tire2TractionForces/VerticalForceTire2/Add" SignalName = "" PortNum = "0" Width = "1" DataType = "real_T" </signal>
<signal> Id = "239" Name = "m220model_v2/4TireTractionForces/Tire2TractionForces/VerticalForceTire2/VerticalTireForcePitchRollWeightTransfer2/Derivative" SignalName = "" PortNum = "0" Width = "1" DataType = "real_T" </signal>
<signal> Id = "240" Name = "m220model_v2/4TireTractionForces/Tire2TractionForces/VerticalForceTire2/VerticalTireForcePitchRollWeightTransfer2/Product2" SignalName = "" PortNum = "0" Width = "1" DataType = "real_T" </signal>
<signal> Id = "241" Name = "m220model_v2/4TireTractionForces/Tire2TractionForces/VerticalForceTire2/VerticalTireForcePitchRollWeightTransfer2/Divide3" SignalName = "" PortNum = "0" Width = "1" DataType = "real_T" </signal>
<signal> Id = "242" Name = "m220model_v2/4TireTractionForces/Tire2TractionForces/VerticalForceTire2/VerticalTireForcePitchRollWeightTransfer2/Derivative1" SignalName = "" PortNum = "0" Width = "1" DataType = "real_T" </signal>
<signal> Id = "243" Name = "m220model_v2/4TireTractionForces/Tire2TractionForces/VerticalForceTire2/VerticalTireForcePitchRollWeightTransfer2/Product5" SignalName = "" PortNum = "0" Width = "1" DataType = "real_T" </signal>
<signal> Id = "244" Name = "m220model_v2/4TireTractionForces/Tire2TractionForces/VerticalForceTire2/VerticalTireForcePitchRollWeightTransfer2/Divide1" SignalName = "" PortNum = "0" Width = "1" DataType = "real_T" </signal>
<signal> Id = "245" Name = "m220model_v2/4TireTractionForces/Tire2TractionForces/VerticalForceTire2/VerticalTireForcePitchRollWeightTransfer2/Product3" SignalName = "" PortNum = "0" Width = "1" DataType = "real_T" </signal>
<signal> Id = "246" Name = "m220model_v2/4TireTractionForces/Tire2TractionForces/VerticalForceTire2/VerticalTireForcePitchRollWeightTransfer2/Add1" SignalName = "" PortNum = "0" Width = "1" DataType = "real_T" </signal>
<signal> Id = "247" Name = "m220model_v2/4TireTractionForces/Tire2TractionForces/VerticalForceTire2/Product1" SignalName = "" PortNum = "0" Width = "1" DataType = "real_T" </signal>
<signal> Id = "248" Name = "m220model_v2/4TireTractionForces/Tire2TractionForces/VerticalForceTire2/Product3" SignalName = "" PortNum = "0" Width = "1" DataType = "real_T" </signal>
<signal> Id = "249" Name = "m220model_v2/4TireTractionForces/Tire2TractionForces/VerticalForceTire2/Square" SignalName = "" PortNum = "0" Width = "1" DataType = "real_T" </signal>
<signal> Id = "250" Name = "m220model_v2/4TireTractionForces/Tire2TractionForces/VerticalForceTire2/Trigonometric Function" SignalName = "" PortNum = "0" Width = "1" DataType = "real_T" </signal>
<signal> Id = "251" Name = "m220model_v2/4TireTractionForces/Tire2TractionForces/VerticalForceTire2/Product4" SignalName = "" PortNum = "0" Width = "1" DataType = "real_T" </signal>
<signal> Id = "252" Name = "m220model_v2/4TireTractionForces/Tire2TractionForces/VerticalForceTire2/Square1" SignalName = "" PortNum = "0" Width = "1" DataType = "real_T" </signal>
<signal> Id = "253" Name = "m220model_v2/4TireTractionForces/Tire2TractionForces/VerticalForceTire2/Add1" SignalName = "" PortNum = "0" Width = "1" DataType = "real_T" </signal>
<signal> Id = "254" Name = "m220model_v2/4TireTractionForces/Tire2TractionForces/VerticalForceTire2/Sqrt" SignalName = "" PortNum = "0" Width = "1" DataType = "real_T" </signal>
<signal> Id = "255" Name = "m220model_v2/4TireTractionForces/Tire2TractionForces/VerticalForceTire2/Product2" SignalName = "" PortNum = "0" Width = "1" DataType = "real_T" </signal>
<signal> Id = "256" Name = "m220model_v2/4TireTractionForces/Tire2TractionForces/VerticalForceTire2/Divide" SignalName = "" PortNum = "0" Width = "1" DataType = "real_T" </signal>
<signal> Id = "257" Name = "m220model_v2/4TireTractionForces/Tire2TractionForces/Switch" SignalName = "" PortNum = "0" Width = "1" DataType = "real_T" </signal>
<signal> Id = "258" Name = "m220model_v2/4TireTractionForces/Tire2TractionForces/Product1" SignalName = "" PortNum = "0" Width = "1" DataType = "real_T" </signal>
<signal> Id = "259" Name = "m220model_v2/4TireTractionForces/Tire2TractionForces/Product2" SignalName = "" PortNum = "0" Width = "1" DataType = "real_T" </signal>
<signal> Id = "260" Name = "m220model_v2/4TireTractionForces/Tire3TractionForces/VerticalForceTire3/SlipRatioTire3/Divide2" SignalName = "" PortNum = "0" Width = "1" DataType = "real_T" </signal>
<signal> Id = "261" Name = "m220model_v2/4TireTractionForces/Tire3TractionForces/VerticalForceTire3/SlipRatioTire3/Product1" SignalName = "" PortNum = "0" Width = "1" DataType = "real_T" </signal>
<signal> Id = "262" Name = "m220model_v2/4TireTractionForces/Tire3TractionForces/VerticalForceTire3/SlipRatioTire3/Product" SignalName = "" PortNum = "0" Width = "1" DataType = "real_T" </signal>
<signal> Id = "263" Name = "m220model_v2/4TireTractionForces/Tire3TractionForces/VerticalForceTire3/SlipRatioTire3/Add" SignalName = "" PortNum = "0" Width = "1" DataType = "real_T" </signal>
<signal> Id = "264" Name = "m220model_v2/4TireTractionForces/Tire3TractionForces/VerticalForceTire3/SlipRatioTire3/Trigonometric Function1" SignalName = "" PortNum = "0" Width = "1" DataType = "real_T" </signal>
<signal> Id = "265" Name = "m220model_v2/4TireTractionForces/Tire3TractionForces/VerticalForceTire3/SlipRatioTire3/Degrees to Radians/Gain1" SignalName = "" PortNum = "0" Width = "1" DataType = "real_T" </signal>
<signal> Id = "266" Name = "m220model_v2/4TireTractionForces/Tire3TractionForces/VerticalForceTire3/SlipRatioTire3/Product3" SignalName = "" PortNum = "0" Width = "1" DataType = "real_T" </signal>
<signal> Id = "267" Name = "m220model_v2/4TireTractionForces/Tire3TractionForces/VerticalForceTire3/SlipRatioTire3/Add2" SignalName = "" PortNum = "0" Width = "1" DataType = "real_T" </signal>
<signal> Id = "268" Name = "m220model_v2/4TireTractionForces/Tire3TractionForces/VerticalForceTire3/SlipRatioTire3/Trigonometric Function" SignalName = "" PortNum = "0" Width = "1" DataType = "real_T" </signal>
<signal> Id = "269" Name = "m220model_v2/4TireTractionForces/Tire3TractionForces/VerticalForceTire3/SlipRatioTire3/Product2" SignalName = "" PortNum = "0" Width = "1" DataType = "real_T" </signal>
<signal> Id = "270" Name = "m220model_v2/4TireTractionForces/Tire3TractionForces/VerticalForceTire3/SlipRatioTire3/Add3" SignalName = "" PortNum = "0" Width = "1" DataType = "real_T" </signal>
<signal> Id = "271" Name = "m220model_v2/4TireTractionForces/Tire3TractionForces/VerticalForceTire3/SlipRatioTire3/Add1" SignalName = "" PortNum = "0" Width = "1" DataType = "real_T" </signal>
<signal> Id = "272" Name = "m220model_v2/4TireTractionForces/Tire3TractionForces/VerticalForceTire3/SlipRatioTire3/Switch" SignalName = "" PortNum = "0" Width = "1" DataType = "real_T" </signal>
<signal> Id = "273" Name = "m220model_v2/4TireTractionForces/Tire3TractionForces/Add" SignalName = "" PortNum = "0" Width = "1" DataType = "real_T" </signal>
<signal> Id = "274" Name = "m220model_v2/4TireTractionForces/Tire3TractionForces/VerticalForceTire3/SlipAngleTire3/Product" SignalName = "" PortNum = "0" Width = "1" DataType = "real_T" </signal>
<signal> Id = "275" Name = "m220model_v2/4TireTractionForces/Tire3TractionForces/VerticalForceTire3/SlipAngleTire3/Subtract" SignalName = "" PortNum = "0" Width = "1" DataType = "real_T" </signal>
<signal> Id = "276" Name = "m220model_v2/4TireTractionForces/Tire3TractionForces/VerticalForceTire3/SlipAngleTire3/Product2" SignalName = "" PortNum = "0" Width = "1" DataType = "real_T" </signal>
<signal> Id = "277" Name = "m220model_v2/4TireTractionForces/Tire3TractionForces/VerticalForceTire3/SlipAngleTire3/Subtract1" SignalName = "" PortNum = "0" Width = "1" DataType = "real_T" </signal>
<signal> Id = "278" Name = "m220model_v2/4TireTractionForces/Tire3TractionForces/VerticalForceTire3/SlipAngleTire3/Divide" SignalName = "" PortNum = "0" Width = "1" DataType = "real_T" </signal>
<signal> Id = "279" Name = "m220model_v2/4TireTractionForces/Tire3TractionForces/VerticalForceTire3/SlipAngleTire3/Trigonometric Function" SignalName = "" PortNum = "0" Width = "1" DataType = "real_T" </signal>
<signal> Id = "280" Name = "m220model_v2/4TireTractionForces/Tire3TractionForces/VerticalForceTire3/SlipAngleTire3/Degrees to Radians/Gain1" SignalName = "" PortNum = "0" Width = "1" DataType = "real_T" </signal>
<signal> Id = "281" Name = "m220model_v2/4TireTractionForces/Tire3TractionForces/VerticalForceTire3/SlipAngleTire3/Subtract2" SignalName = "" PortNum = "0" Width = "1" DataType = "real_T" </signal>
<signal> Id = "282" Name = "m220model_v2/4TireTractionForces/Tire3TractionForces/Trigonometric Function" SignalName = "" PortNum = "0" Width = "1" DataType = "real_T" </signal>
<signal> Id = "283" Name = "m220model_v2/4TireTractionForces/Tire3TractionForces/Divide1" SignalName = "" PortNum = "0" Width = "1" DataType = "real_T" </signal>
<signal> Id = "284" Name = "m220model_v2/4TireTractionForces/Tire3TractionForces/Divide2" SignalName = "" PortNum = "0" Width = "1" DataType = "real_T" </signal>
<signal> Id = "285" Name = "m220model_v2/4TireTractionForces/Tire3TractionForces/VerticalForceTire3/Add" SignalName = "" PortNum = "0" Width = "1" DataType = "real_T" </signal>
<signal> Id = "286" Name = "m220model_v2/4TireTractionForces/Tire3TractionForces/VerticalForceTire3/VerticalTireForcePitchRollWeightTransfer3/Derivative" SignalName = "" PortNum = "0" Width = "1" DataType = "real_T" </signal>
<signal> Id = "287" Name = "m220model_v2/4TireTractionForces/Tire3TractionForces/VerticalForceTire3/VerticalTireForcePitchRollWeightTransfer3/Product2" SignalName = "" PortNum = "0" Width = "1" DataType = "real_T" </signal>
<signal> Id = "288" Name = "m220model_v2/4TireTractionForces/Tire3TractionForces/VerticalForceTire3/VerticalTireForcePitchRollWeightTransfer3/Divide3" SignalName = "" PortNum = "0" Width = "1" DataType = "real_T" </signal>
<signal> Id = "289" Name = "m220model_v2/4TireTractionForces/Tire3TractionForces/VerticalForceTire3/VerticalTireForcePitchRollWeightTransfer3/Derivative1" SignalName = "" PortNum = "0" Width = "1" DataType = "real_T" </signal>
<signal> Id = "290" Name = "m220model_v2/4TireTractionForces/Tire3TractionForces/VerticalForceTire3/VerticalTireForcePitchRollWeightTransfer3/Product5" SignalName = "" PortNum = "0" Width = "1" DataType = "real_T" </signal>
<signal> Id = "291" Name = "m220model_v2/4TireTractionForces/Tire3TractionForces/VerticalForceTire3/VerticalTireForcePitchRollWeightTransfer3/Divide1" SignalName = "" PortNum = "0" Width = "1" DataType = "real_T" </signal>
<signal> Id = "292" Name = "m220model_v2/4TireTractionForces/Tire3TractionForces/VerticalForceTire3/VerticalTireForcePitchRollWeightTransfer3/Product3" SignalName = "" PortNum = "0" Width = "1" DataType = "real_T" </signal>
<signal> Id = "293" Name = "m220model_v2/4TireTractionForces/Tire3TractionForces/VerticalForceTire3/VerticalTireForcePitchRollWeightTransfer3/Add1" SignalName = "" PortNum = "0" Width = "1" DataType = "real_T" </signal>
<signal> Id = "294" Name = "m220model_v2/4TireTractionForces/Tire3TractionForces/VerticalForceTire3/Product1" SignalName = "" PortNum = "0" Width = "1" DataType = "real_T" </signal>
<signal> Id = "295" Name = "m220model_v2/4TireTractionForces/Tire3TractionForces/VerticalForceTire3/Product3" SignalName = "" PortNum = "0" Width = "1" DataType = "real_T" </signal>
<signal> Id = "296" Name = "m220model_v2/4TireTractionForces/Tire3TractionForces/VerticalForceTire3/Square" SignalName = "" PortNum = "0" Width = "1" DataType = "real_T" </signal>
<signal> Id = "297" Name = "m220model_v2/4TireTractionForces/Tire3TractionForces/VerticalForceTire3/Trigonometric Function" SignalName = "" PortNum = "0" Width = "1" DataType = "real_T" </signal>
<signal> Id = "298" Name = "m220model_v2/4TireTractionForces/Tire3TractionForces/VerticalForceTire3/Product4" SignalName = "" PortNum = "0" Width = "1" DataType = "real_T" </signal>
<signal> Id = "299" Name = "m220model_v2/4TireTractionForces/Tire3TractionForces/VerticalForceTire3/Square1" SignalName = "" PortNum = "0" Width = "1" DataType = "real_T" </signal>
<signal> Id = "300" Name = "m220model_v2/4TireTractionForces/Tire3TractionForces/VerticalForceTire3/Add1" SignalName = "" PortNum = "0" Width = "1" DataType = "real_T" </signal>
<signal> Id = "301" Name = "m220model_v2/4TireTractionForces/Tire3TractionForces/VerticalForceTire3/Sqrt" SignalName = "" PortNum = "0" Width = "1" DataType = "real_T" </signal>
<signal> Id = "302" Name = "m220model_v2/4TireTractionForces/Tire3TractionForces/VerticalForceTire3/Product2" SignalName = "" PortNum = "0" Width = "1" DataType = "real_T" </signal>
<signal> Id = "303" Name = "m220model_v2/4TireTractionForces/Tire3TractionForces/VerticalForceTire3/Divide" SignalName = "" PortNum = "0" Width = "1" DataType = "real_T" </signal>
<signal> Id = "304" Name = "m220model_v2/4TireTractionForces/Tire3TractionForces/Switch" SignalName = "" PortNum = "0" Width = "1" DataType = "real_T" </signal>
<signal> Id = "305" Name = "m220model_v2/4TireTractionForces/Tire3TractionForces/Product1" SignalName = "" PortNum = "0" Width = "1" DataType = "real_T" </signal>
<signal> Id = "306" Name = "m220model_v2/4TireTractionForces/Tire3TractionForces/Product2" SignalName = "" PortNum = "0" Width = "1" DataType = "real_T" </signal>
<signal> Id = "307" Name = "m220model_v2/4TireTractionForces/Tire4TractionForces/VerticalForceTire4/SlipRatioTire4/Divide2" SignalName = "" PortNum = "0" Width = "1" DataType = "real_T" </signal>
<signal> Id = "308" Name = "m220model_v2/4TireTractionForces/Tire4TractionForces/VerticalForceTire4/SlipRatioTire4/Product1" SignalName = "" PortNum = "0" Width = "1" DataType = "real_T" </signal>
<signal> Id = "309" Name = "m220model_v2/4TireTractionForces/Tire4TractionForces/VerticalForceTire4/SlipRatioTire4/Product" SignalName = "" PortNum = "0" Width = "1" DataType = "real_T" </signal>
<signal> Id = "310" Name = "m220model_v2/4TireTractionForces/Tire4TractionForces/VerticalForceTire4/SlipRatioTire4/Add" SignalName = "" PortNum = "0" Width = "1" DataType = "real_T" </signal>
<signal> Id = "311" Name = "m220model_v2/4TireTractionForces/Tire4TractionForces/VerticalForceTire4/SlipRatioTire4/Trigonometric Function1" SignalName = "" PortNum = "0" Width = "1" DataType = "real_T" </signal>
<signal> Id = "312" Name = "m220model_v2/4TireTractionForces/Tire4TractionForces/VerticalForceTire4/SlipRatioTire4/Degrees to Radians/Gain1" SignalName = "" PortNum = "0" Width = "1" DataType = "real_T" </signal>
<signal> Id = "313" Name = "m220model_v2/4TireTractionForces/Tire4TractionForces/VerticalForceTire4/SlipRatioTire4/Product3" SignalName = "" PortNum = "0" Width = "1" DataType = "real_T" </signal>
<signal> Id = "314" Name = "m220model_v2/4TireTractionForces/Tire4TractionForces/VerticalForceTire4/SlipRatioTire4/Add2" SignalName = "" PortNum = "0" Width = "1" DataType = "real_T" </signal>
<signal> Id = "315" Name = "m220model_v2/4TireTractionForces/Tire4TractionForces/VerticalForceTire4/SlipRatioTire4/Trigonometric Function" SignalName = "" PortNum = "0" Width = "1" DataType = "real_T" </signal>
<signal> Id = "316" Name = "m220model_v2/4TireTractionForces/Tire4TractionForces/VerticalForceTire4/SlipRatioTire4/Product2" SignalName = "" PortNum = "0" Width = "1" DataType = "real_T" </signal>
<signal> Id = "317" Name = "m220model_v2/4TireTractionForces/Tire4TractionForces/VerticalForceTire4/SlipRatioTire4/Add3" SignalName = "" PortNum = "0" Width = "1" DataType = "real_T" </signal>
<signal> Id = "318" Name = "m220model_v2/4TireTractionForces/Tire4TractionForces/VerticalForceTire4/SlipRatioTire4/Add1" SignalName = "" PortNum = "0" Width = "1" DataType = "real_T" </signal>
<signal> Id = "319" Name = "m220model_v2/4TireTractionForces/Tire4TractionForces/VerticalForceTire4/SlipRatioTire4/Switch" SignalName = "" PortNum = "0" Width = "1" DataType = "real_T" </signal>
<signal> Id = "320" Name = "m220model_v2/4TireTractionForces/Tire4TractionForces/Add" SignalName = "" PortNum = "0" Width = "1" DataType = "real_T" </signal>
<signal> Id = "321" Name = "m220model_v2/4TireTractionForces/Tire4TractionForces/VerticalForceTire4/SlipAngleTire4/Product" SignalName = "" PortNum = "0" Width = "1" DataType = "real_T" </signal>
<signal> Id = "322" Name = "m220model_v2/4TireTractionForces/Tire4TractionForces/VerticalForceTire4/SlipAngleTire4/Subtract" SignalName = "" PortNum = "0" Width = "1" DataType = "real_T" </signal>
<signal> Id = "323" Name = "m220model_v2/4TireTractionForces/Tire4TractionForces/VerticalForceTire4/SlipAngleTire4/Product2" SignalName = "" PortNum = "0" Width = "1" DataType = "real_T" </signal>
<signal> Id = "324" Name = "m220model_v2/4TireTractionForces/Tire4TractionForces/VerticalForceTire4/SlipAngleTire4/Subtract1" SignalName = "" PortNum = "0" Width = "1" DataType = "real_T" </signal>
<signal> Id = "325" Name = "m220model_v2/4TireTractionForces/Tire4TractionForces/VerticalForceTire4/SlipAngleTire4/Divide" SignalName = "" PortNum = "0" Width = "1" DataType = "real_T" </signal>
<signal> Id = "326" Name = "m220model_v2/4TireTractionForces/Tire4TractionForces/VerticalForceTire4/SlipAngleTire4/Trigonometric Function" SignalName = "" PortNum = "0" Width = "1" DataType = "real_T" </signal>
<signal> Id = "327" Name = "m220model_v2/4TireTractionForces/Tire4TractionForces/VerticalForceTire4/SlipAngleTire4/Degrees to Radians/Gain1" SignalName = "" PortNum = "0" Width = "1" DataType = "real_T" </signal>
<signal> Id = "328" Name = "m220model_v2/4TireTractionForces/Tire4TractionForces/VerticalForceTire4/SlipAngleTire4/Subtract2" SignalName = "" PortNum = "0" Width = "1" DataType = "real_T" </signal>
<signal> Id = "329" Name = "m220model_v2/4TireTractionForces/Tire4TractionForces/Trigonometric Function" SignalName = "" PortNum = "0" Width = "1" DataType = "real_T" </signal>
<signal> Id = "330" Name = "m220model_v2/4TireTractionForces/Tire4TractionForces/Divide1" SignalName = "" PortNum = "0" Width = "1" DataType = "real_T" </signal>
<signal> Id = "331" Name = "m220model_v2/4TireTractionForces/Tire4TractionForces/Divide2" SignalName = "" PortNum = "0" Width = "1" DataType = "real_T" </signal>
<signal> Id = "332" Name = "m220model_v2/4TireTractionForces/Tire4TractionForces/VerticalForceTire4/Add" SignalName = "" PortNum = "0" Width = "1" DataType = "real_T" </signal>
<signal> Id = "333" Name = "m220model_v2/4TireTractionForces/Tire4TractionForces/VerticalForceTire4/VerticalTireForcePitchRollWeightTransfer4/Derivative" SignalName = "" PortNum = "0" Width = "1" DataType = "real_T" </signal>
<signal> Id = "334" Name = "m220model_v2/4TireTractionForces/Tire4TractionForces/VerticalForceTire4/VerticalTireForcePitchRollWeightTransfer4/Product2" SignalName = "" PortNum = "0" Width = "1" DataType = "real_T" </signal>
<signal> Id = "335" Name = "m220model_v2/4TireTractionForces/Tire4TractionForces/VerticalForceTire4/VerticalTireForcePitchRollWeightTransfer4/Divide3" SignalName = "" PortNum = "0" Width = "1" DataType = "real_T" </signal>
<signal> Id = "336" Name = "m220model_v2/4TireTractionForces/Tire4TractionForces/VerticalForceTire4/VerticalTireForcePitchRollWeightTransfer4/Derivative1" SignalName = "" PortNum = "0" Width = "1" DataType = "real_T" </signal>
<signal> Id = "337" Name = "m220model_v2/4TireTractionForces/Tire4TractionForces/VerticalForceTire4/VerticalTireForcePitchRollWeightTransfer4/Product5" SignalName = "" PortNum = "0" Width = "1" DataType = "real_T" </signal>
<signal> Id = "338" Name = "m220model_v2/4TireTractionForces/Tire4TractionForces/VerticalForceTire4/VerticalTireForcePitchRollWeightTransfer4/Divide1" SignalName = "" PortNum = "0" Width = "1" DataType = "real_T" </signal>
<signal> Id = "339" Name = "m220model_v2/4TireTractionForces/Tire4TractionForces/VerticalForceTire4/VerticalTireForcePitchRollWeightTransfer4/Product3" SignalName = "" PortNum = "0" Width = "1" DataType = "real_T" </signal>
<signal> Id = "340" Name = "m220model_v2/4TireTractionForces/Tire4TractionForces/VerticalForceTire4/VerticalTireForcePitchRollWeightTransfer4/Add1" SignalName = "" PortNum = "0" Width = "1" DataType = "real_T" </signal>
<signal> Id = "341" Name = "m220model_v2/4TireTractionForces/Tire4TractionForces/VerticalForceTire4/Product1" SignalName = "" PortNum = "0" Width = "1" DataType = "real_T" </signal>
<signal> Id = "342" Name = "m220model_v2/4TireTractionForces/Tire4TractionForces/VerticalForceTire4/Product3" SignalName = "" PortNum = "0" Width = "1" DataType = "real_T" </signal>
<signal> Id = "343" Name = "m220model_v2/4TireTractionForces/Tire4TractionForces/VerticalForceTire4/Square" SignalName = "" PortNum = "0" Width = "1" DataType = "real_T" </signal>
<signal> Id = "344" Name = "m220model_v2/4TireTractionForces/Tire4TractionForces/VerticalForceTire4/Trigonometric Function" SignalName = "" PortNum = "0" Width = "1" DataType = "real_T" </signal>
<signal> Id = "345" Name = "m220model_v2/4TireTractionForces/Tire4TractionForces/VerticalForceTire4/Product4" SignalName = "" PortNum = "0" Width = "1" DataType = "real_T" </signal>
<signal> Id = "346" Name = "m220model_v2/4TireTractionForces/Tire4TractionForces/VerticalForceTire4/Square1" SignalName = "" PortNum = "0" Width = "1" DataType = "real_T" </signal>
<signal> Id = "347" Name = "m220model_v2/4TireTractionForces/Tire4TractionForces/VerticalForceTire4/Add1" SignalName = "" PortNum = "0" Width = "1" DataType = "real_T" </signal>
<signal> Id = "348" Name = "m220model_v2/4TireTractionForces/Tire4TractionForces/VerticalForceTire4/Sqrt" SignalName = "" PortNum = "0" Width = "1" DataType = "real_T" </signal>
<signal> Id = "349" Name = "m220model_v2/4TireTractionForces/Tire4TractionForces/VerticalForceTire4/Product2" SignalName = "" PortNum = "0" Width = "1" DataType = "real_T" </signal>
<signal> Id = "350" Name = "m220model_v2/4TireTractionForces/Tire4TractionForces/VerticalForceTire4/Divide" SignalName = "" PortNum = "0" Width = "1" DataType = "real_T" </signal>
<signal> Id = "351" Name = "m220model_v2/4TireTractionForces/Tire4TractionForces/Switch" SignalName = "" PortNum = "0" Width = "1" DataType = "real_T" </signal>
<signal> Id = "352" Name = "m220model_v2/4TireTractionForces/Tire4TractionForces/Product1" SignalName = "" PortNum = "0" Width = "1" DataType = "real_T" </signal>
<signal> Id = "353" Name = "m220model_v2/4TireTractionForces/Tire4TractionForces/Product2" SignalName = "" PortNum = "0" Width = "1" DataType = "real_T" </signal>
<signal> Id = "354" Name = "m220model_v2/Degrees to Radians/Gain1" SignalName = "" PortNum = "0" Width = "1" DataType = "real_T" </signal>
<signal> Id = "355" Name = "m220model_v2/M220DynamicsModel/Steering_Angle_Limits" SignalName = "" PortNum = "0" Width = "1" DataType = "real_T" </signal>
<signal> Id = "356" Name = "m220model_v2/M220DynamicsModel/Degrees to Radians/Gain1" SignalName = "" PortNum = "0" Width = "1" DataType = "real_T" </signal>
<signal> Id = "357" Name = "m220model_v2/M220DynamicsModel/Trigonometric Function1" SignalName = "" PortNum = "0" Width = "1" DataType = "real_T" </signal>
<signal> Id = "358" Name = "m220model_v2/M220DynamicsModel/Add3" SignalName = "" PortNum = "0" Width = "1" DataType = "real_T" </signal>
<signal> Id = "359" Name = "m220model_v2/M220DynamicsModel/Product6" SignalName = "" PortNum = "0" Width = "1" DataType = "real_T" </signal>
<signal> Id = "360" Name = "m220model_v2/M220DynamicsModel/Add4" SignalName = "" PortNum = "0" Width = "1" DataType = "real_T" </signal>
<signal> Id = "361" Name = "m220model_v2/M220DynamicsModel/Trigonometric Function2" SignalName = "" PortNum = "0" Width = "1" DataType = "real_T" </signal>
<signal> Id = "362" Name = "m220model_v2/M220DynamicsModel/Product7" SignalName = "" PortNum = "0" Width = "1" DataType = "real_T" </signal>
<signal> Id = "363" Name = "m220model_v2/M220DynamicsModel/Add10" SignalName = "" PortNum = "0" Width = "1" DataType = "real_T" </signal>
<signal> Id = "364" Name = "m220model_v2/M220DynamicsModel/Product2" SignalName = "" PortNum = "0" Width = "1" DataType = "real_T" </signal>
<signal> Id = "365" Name = "m220model_v2/M220DynamicsModel/Delay" SignalName = "" PortNum = "0" Width = "1" DataType = "real_T" </signal>
<signal> Id = "366" Name = "m220model_v2/M220DynamicsModel/Gain" SignalName = "" PortNum = "0" Width = "1" DataType = "real_T" </signal>
<signal> Id = "367" Name = "m220model_v2/M220DynamicsModel/Delay2" SignalName = "" PortNum = "0" Width = "1" DataType = "real_T" </signal>
<signal> Id = "368" Name = "m220model_v2/M220DynamicsModel/Product1" SignalName = "" PortNum = "0" Width = "1" DataType = "real_T" </signal>
<signal> Id = "369" Name = "m220model_v2/M220DynamicsModel/Add1" SignalName = "" PortNum = "0" Width = "1" DataType = "real_T" </signal>
<signal> Id = "370" Name = "m220model_v2/M220DynamicsModel/Add11" SignalName = "" PortNum = "0" Width = "1" DataType = "real_T" </signal>
<signal> Id = "371" Name = "m220model_v2/M220DynamicsModel/Add12" SignalName = "" PortNum = "0" Width = "1" DataType = "real_T" </signal>
<signal> Id = "372" Name = "m220model_v2/M220DynamicsModel/Add14" SignalName = "" PortNum = "0" Width = "1" DataType = "real_T" </signal>
<signal> Id = "373" Name = "m220model_v2/M220DynamicsModel/Delay4" SignalName = "" PortNum = "0" Width = "1" DataType = "real_T" </signal>
<signal> Id = "374" Name = "m220model_v2/M220DynamicsModel/Product19" SignalName = "" PortNum = "0" Width = "1" DataType = "real_T" </signal>
<signal> Id = "375" Name = "m220model_v2/M220DynamicsModel/Delay1" SignalName = "" PortNum = "0" Width = "1" DataType = "real_T" </signal>
<signal> Id = "376" Name = "m220model_v2/M220DynamicsModel/Delay3" SignalName = "" PortNum = "0" Width = "1" DataType = "real_T" </signal>
<signal> Id = "377" Name = "m220model_v2/M220DynamicsModel/Product20" SignalName = "" PortNum = "0" Width = "1" DataType = "real_T" </signal>
<signal> Id = "378" Name = "m220model_v2/M220DynamicsModel/Add16" SignalName = "" PortNum = "0" Width = "1" DataType = "real_T" </signal>
<signal> Id = "379" Name = "m220model_v2/M220DynamicsModel/FyTotalCalc/Add" SignalName = "" PortNum = "0" Width = "1" DataType = "real_T" </signal>
<signal> Id = "380" Name = "m220model_v2/M220DynamicsModel/FyTotalCalc/Trigonometric Function" SignalName = "" PortNum = "0" Width = "1" DataType = "real_T" </signal>
<signal> Id = "381" Name = "m220model_v2/M220DynamicsModel/FyTotalCalc/Product" SignalName = "" PortNum = "0" Width = "1" DataType = "real_T" </signal>
<signal> Id = "382" Name = "m220model_v2/M220DynamicsModel/FyTotalCalc/Trigonometric Function1" SignalName = "" PortNum = "0" Width = "1" DataType = "real_T" </signal>
<signal> Id = "383" Name = "m220model_v2/M220DynamicsModel/FyTotalCalc/Add2" SignalName = "" PortNum = "0" Width = "1" DataType = "real_T" </signal>
<signal> Id = "384" Name = "m220model_v2/M220DynamicsModel/FyTotalCalc/Product1" SignalName = "" PortNum = "0" Width = "1" DataType = "real_T" </signal>
<signal> Id = "385" Name = "m220model_v2/M220DynamicsModel/FyTotalCalc/Add1" SignalName = "" PortNum = "0" Width = "1" DataType = "real_T" </signal>
<signal> Id = "386" Name = "m220model_v2/M220DynamicsModel/Product27" SignalName = "" PortNum = "0" Width = "1" DataType = "real_T" </signal>
<signal> Id = "387" Name = "m220model_v2/M220DynamicsModel/Product28" SignalName = "" PortNum = "0" Width = "1" DataType = "real_T" </signal>
<signal> Id = "388" Name = "m220model_v2/M220DynamicsModel/Add17" SignalName = "" PortNum = "0" Width = "1" DataType = "real_T" </signal>
<signal> Id = "389" Name = "m220model_v2/M220DynamicsModel/Product9" SignalName = "" PortNum = "0" Width = "1" DataType = "real_T" </signal>
<signal> Id = "390" Name = "m220model_v2/M220DynamicsModel/Product10" SignalName = "" PortNum = "0" Width = "1" DataType = "real_T" </signal>
<signal> Id = "391" Name = "m220model_v2/M220DynamicsModel/Add2" SignalName = "" PortNum = "0" Width = "1" DataType = "real_T" </signal>
<signal> Id = "392" Name = "m220model_v2/M220DynamicsModel/Product35" SignalName = "" PortNum = "0" Width = "1" DataType = "real_T" </signal>
<signal> Id = "393" Name = "m220model_v2/M220DynamicsModel/FxTotalCalc/Add" SignalName = "" PortNum = "0" Width = "1" DataType = "real_T" </signal>
<signal> Id = "394" Name = "m220model_v2/M220DynamicsModel/FxTotalCalc/Trigonometric Function" SignalName = "" PortNum = "0" Width = "1" DataType = "real_T" </signal>
<signal> Id = "395" Name = "m220model_v2/M220DynamicsModel/FxTotalCalc/Product" SignalName = "" PortNum = "0" Width = "1" DataType = "real_T" </signal>
<signal> Id = "396" Name = "m220model_v2/M220DynamicsModel/FxTotalCalc/Trigonometric Function1" SignalName = "" PortNum = "0" Width = "1" DataType = "real_T" </signal>
<signal> Id = "397" Name = "m220model_v2/M220DynamicsModel/FxTotalCalc/Add2" SignalName = "" PortNum = "0" Width = "1" DataType = "real_T" </signal>
<signal> Id = "398" Name = "m220model_v2/M220DynamicsModel/FxTotalCalc/Product1" SignalName = "" PortNum = "0" Width = "1" DataType = "real_T" </signal>
<signal> Id = "399" Name = "m220model_v2/M220DynamicsModel/FxTotalCalc/Add1" SignalName = "" PortNum = "0" Width = "1" DataType = "real_T" </signal>
<signal> Id = "400" Name = "m220model_v2/M220DynamicsModel/Product31" SignalName = "" PortNum = "0" Width = "1" DataType = "real_T" </signal>
<signal> Id = "401" Name = "m220model_v2/M220DynamicsModel/Add20" SignalName = "" PortNum = "0" Width = "1" DataType = "real_T" </signal>
<signal> Id = "402" Name = "m220model_v2/M220DynamicsModel/Product14" SignalName = "" PortNum = "0" Width = "1" DataType = "real_T" </signal>
<signal> Id = "403" Name = "m220model_v2/M220DynamicsModel/Product15" SignalName = "" PortNum = "0" Width = "1" DataType = "real_T" </signal>
<signal> Id = "404" Name = "m220model_v2/M220DynamicsModel/Magnitude Squared" SignalName = "" PortNum = "0" Width = "1" DataType = "real_T" </signal>
<signal> Id = "405" Name = "m220model_v2/M220DynamicsModel/Sign" SignalName = "" PortNum = "0" Width = "1" DataType = "real_T" </signal>
<signal> Id = "406" Name = "m220model_v2/M220DynamicsModel/Product16" SignalName = "" PortNum = "0" Width = "1" DataType = "real_T" </signal>
<signal> Id = "407" Name = "m220model_v2/M220DynamicsModel/Add5" SignalName = "" PortNum = "0" Width = "1" DataType = "real_T" </signal>
<signal> Id = "408" Name = "m220model_v2/M220DynamicsModel/Product12" SignalName = "" PortNum = "0" Width = "1" DataType = "real_T" </signal>
<signal> Id = "409" Name = "m220model_v2/M220DynamicsModel/Product11" SignalName = "" PortNum = "0" Width = "1" DataType = "real_T" </signal>
<signal> Id = "410" Name = "m220model_v2/M220DynamicsModel/Add6" SignalName = "" PortNum = "0" Width = "1" DataType = "real_T" </signal>
<signal> Id = "411" Name = "m220model_v2/M220DynamicsModel/Add7" SignalName = "" PortNum = "0" Width = "1" DataType = "real_T" </signal>
<signal> Id = "412" Name = "m220model_v2/M220DynamicsModel/Product3" SignalName = "" PortNum = "0" Width = "1" DataType = "real_T" </signal>
<signal> Id = "413" Name = "m220model_v2/M220DynamicsModel/Add9" SignalName = "" PortNum = "0" Width = "1" DataType = "real_T" </signal>
<signal> Id = "414" Name = "m220model_v2/M220DynamicsModel/Product4" SignalName = "" PortNum = "0" Width = "1" DataType = "real_T" </signal>
<signal> Id = "415" Name = "m220model_v2/M220DynamicsModel/Product5" SignalName = "" PortNum = "0" Width = "1" DataType = "real_T" </signal>
<signal> Id = "416" Name = "m220model_v2/M220DynamicsModel/Product18" SignalName = "" PortNum = "0" Width = "1" DataType = "real_T" </signal>
<signal> Id = "417" Name = "m220model_v2/M220DynamicsModel/Add8" SignalName = "" PortNum = "0" Width = "1" DataType = "real_T" </signal>
<signal> Id = "418" Name = "m220model_v2/M220DynamicsModel/Integrator" SignalName = "" PortNum = "0" Width = "1" DataType = "real_T" </signal>
<signal> Id = "419" Name = "m220model_v2/M220DynamicsModel/Integrator10" SignalName = "" PortNum = "0" Width = "1" DataType = "real_T" </signal>
<signal> Id = "420" Name = "m220model_v2/M220DynamicsModel/Integrator3" SignalName = "" PortNum = "0" Width = "1" DataType = "real_T" </signal>
<signal> Id = "421" Name = "m220model_v2/M220DynamicsModel/Integrator6" SignalName = "" PortNum = "0" Width = "1" DataType = "real_T" </signal>
<signal> Id = "422" Name = "m220model_v2/M220DynamicsModel/Integrator7" SignalName = "" PortNum = "0" Width = "1" DataType = "real_T" </signal>
<signal> Id = "423" Name = "m220model_v2/M220DynamicsModel/Integrator8" SignalName = "" PortNum = "0" Width = "1" DataType = "real_T" </signal>
<signal> Id = "424" Name = "m220model_v2/M220DynamicsModel/Integrator9" SignalName = "" PortNum = "0" Width = "1" DataType = "real_T" </signal>
<signal> Id = "425" Name = "m220model_v2/M220DynamicsModel/Product17" SignalName = "" PortNum = "0" Width = "1" DataType = "real_T" </signal>
<signal> Id = "426" Name = "m220model_v2/M220DynamicsModel/Product29" SignalName = "" PortNum = "0" Width = "1" DataType = "real_T" </signal>
<signal> Id = "427" Name = "m220model_v2/M220DynamicsModel/Product30" SignalName = "" PortNum = "0" Width = "1" DataType = "real_T" </signal>
<signal> Id = "428" Name = "m220model_v2/M220DynamicsModel/Radians to Degrees1/Gain" SignalName = "" PortNum = "0" Width = "1" DataType = "real_T" </signal>
<signal> Id = "429" Name = "m220model_v2/M220DynamicsModel/Radians to Degrees2/Gain" SignalName = "" PortNum = "0" Width = "1" DataType = "real_T" </signal>
<signal> Id = "430" Name = "m220model_v2/M220MowerDecksSubsystem/Switch" SignalName = "" PortNum = "0" Width = "1" DataType = "real_T" </signal>
<signal> Id = "431" Name = "m220model_v2/M220MowerDecksSubsystem/Add" SignalName = "" PortNum = "0" Width = "1" DataType = "real_T" </signal>
<signal> Id = "432" Name = "m220model_v2/M220MowerDecksSubsystem/Switch2" SignalName = "" PortNum = "0" Width = "1" DataType = "real_T" </signal>
<signal> Id = "433" Name = "m220model_v2/M220MowerDecksSubsystem/Add1" SignalName = "" PortNum = "0" Width = "1" DataType = "real_T" </signal>
<signal> Id = "434" Name = "m220model_v2/M220MowerDecksSubsystem/Switch17" SignalName = "" PortNum = "0" Width = "1" DataType = "real_T" </signal>
<signal> Id = "435" Name = "m220model_v2/M220MowerDecksSubsystem/Add10" SignalName = "" PortNum = "0" Width = "1" DataType = "real_T" </signal>
<signal> Id = "436" Name = "m220model_v2/M220MowerDecksSubsystem/Switch19" SignalName = "" PortNum = "0" Width = "1" DataType = "real_T" </signal>
<signal> Id = "437" Name = "m220model_v2/M220MowerDecksSubsystem/Add11" SignalName = "" PortNum = "0" Width = "1" DataType = "real_T" </signal>
<signal> Id = "438" Name = "m220model_v2/M220MowerDecksSubsystem/Switch1" SignalName = "" PortNum = "0" Width = "1" DataType = "real_T" </signal>
<signal> Id = "439" Name = "m220model_v2/M220MowerDecksSubsystem/Add2" SignalName = "" PortNum = "0" Width = "1" DataType = "real_T" </signal>
<signal> Id = "440" Name = "m220model_v2/M220MowerDecksSubsystem/Switch3" SignalName = "" PortNum = "0" Width = "1" DataType = "real_T" </signal>
<signal> Id = "441" Name = "m220model_v2/M220MowerDecksSubsystem/Add3" SignalName = "" PortNum = "0" Width = "1" DataType = "real_T" </signal>
<signal> Id = "442" Name = "m220model_v2/M220MowerDecksSubsystem/Switch8" SignalName = "" PortNum = "0" Width = "1" DataType = "real_T" </signal>
<signal> Id = "443" Name = "m220model_v2/M220MowerDecksSubsystem/Add4" SignalName = "" PortNum = "0" Width = "1" DataType = "real_T" </signal>
<signal> Id = "444" Name = "m220model_v2/M220MowerDecksSubsystem/Switch10" SignalName = "" PortNum = "0" Width = "1" DataType = "real_T" </signal>
<signal> Id = "445" Name = "m220model_v2/M220MowerDecksSubsystem/Add5" SignalName = "" PortNum = "0" Width = "1" DataType = "real_T" </signal>
<signal> Id = "446" Name = "m220model_v2/M220MowerDecksSubsystem/Switch9" SignalName = "" PortNum = "0" Width = "1" DataType = "real_T" </signal>
<signal> Id = "447" Name = "m220model_v2/M220MowerDecksSubsystem/Add6" SignalName = "" PortNum = "0" Width = "1" DataType = "real_T" </signal>
<signal> Id = "448" Name = "m220model_v2/M220MowerDecksSubsystem/Switch11" SignalName = "" PortNum = "0" Width = "1" DataType = "real_T" </signal>
<signal> Id = "449" Name = "m220model_v2/M220MowerDecksSubsystem/Add7" SignalName = "" PortNum = "0" Width = "1" DataType = "real_T" </signal>
<signal> Id = "450" Name = "m220model_v2/M220MowerDecksSubsystem/Switch16" SignalName = "" PortNum = "0" Width = "1" DataType = "real_T" </signal>
<signal> Id = "451" Name = "m220model_v2/M220MowerDecksSubsystem/Add8" SignalName = "" PortNum = "0" Width = "1" DataType = "real_T" </signal>
<signal> Id = "452" Name = "m220model_v2/M220MowerDecksSubsystem/Switch18" SignalName = "" PortNum = "0" Width = "1" DataType = "real_T" </signal>
<signal> Id = "453" Name = "m220model_v2/M220MowerDecksSubsystem/Add9" SignalName = "" PortNum = "0" Width = "1" DataType = "real_T" </signal>
<signal> Id = "454" Name = "m220model_v2/M220MowerDecksSubsystem/Switch4" SignalName = "" PortNum = "0" Width = "1" DataType = "real_T" </signal>
<signal> Id = "455" Name = "m220model_v2/M220MowerDecksSubsystem/Rate Limiter" SignalName = "" PortNum = "0" Width = "1" DataType = "real_T" </signal>
<signal> Id = "456" Name = "m220model_v2/M220MowerDecksSubsystem/Rate Limiter2" SignalName = "" PortNum = "0" Width = "1" DataType = "real_T" </signal>
<signal> Id = "457" Name = "m220model_v2/M220MowerDecksSubsystem/Rate Limiter1" SignalName = "" PortNum = "0" Width = "1" DataType = "real_T" </signal>
<signal> Id = "458" Name = "m220model_v2/M220MowerDecksSubsystem/Rate Limiter3" SignalName = "" PortNum = "0" Width = "1" DataType = "real_T" </signal>
<signal> Id = "459" Name = "m220model_v2/M220MowerDecksSubsystem/Multiport Switch" SignalName = "" PortNum = "0" Width = "1" DataType = "real_T" </signal>
<signal> Id = "460" Name = "m220model_v2/M220MowerDecksSubsystem/Switch12" SignalName = "" PortNum = "0" Width = "1" DataType = "real_T" </signal>
<signal> Id = "461" Name = "m220model_v2/M220MowerDecksSubsystem/Rate Limiter4" SignalName = "" PortNum = "0" Width = "1" DataType = "real_T" </signal>
<signal> Id = "462" Name = "m220model_v2/M220MowerDecksSubsystem/Rate Limiter6" SignalName = "" PortNum = "0" Width = "1" DataType = "real_T" </signal>
<signal> Id = "463" Name = "m220model_v2/M220MowerDecksSubsystem/Rate Limiter5" SignalName = "" PortNum = "0" Width = "1" DataType = "real_T" </signal>
<signal> Id = "464" Name = "m220model_v2/M220MowerDecksSubsystem/Rate Limiter7" SignalName = "" PortNum = "0" Width = "1" DataType = "real_T" </signal>
<signal> Id = "465" Name = "m220model_v2/M220MowerDecksSubsystem/Multiport Switch1" SignalName = "" PortNum = "0" Width = "1" DataType = "real_T" </signal>
<signal> Id = "466" Name = "m220model_v2/M220MowerDecksSubsystem/Switch20" SignalName = "" PortNum = "0" Width = "1" DataType = "real_T" </signal>
<signal> Id = "467" Name = "m220model_v2/M220MowerDecksSubsystem/Rate Limiter8" SignalName = "" PortNum = "0" Width = "1" DataType = "real_T" </signal>
<signal> Id = "468" Name = "m220model_v2/M220MowerDecksSubsystem/Rate Limiter10" SignalName = "" PortNum = "0" Width = "1" DataType = "real_T" </signal>
<signal> Id = "469" Name = "m220model_v2/M220MowerDecksSubsystem/Rate Limiter9" SignalName = "" PortNum = "0" Width = "1" DataType = "real_T" </signal>
<signal> Id = "470" Name = "m220model_v2/M220MowerDecksSubsystem/Rate Limiter11" SignalName = "" PortNum = "0" Width = "1" DataType = "real_T" </signal>
<signal> Id = "471" Name = "m220model_v2/M220MowerDecksSubsystem/Multiport Switch2" SignalName = "" PortNum = "0" Width = "1" DataType = "real_T" </signal>
<signal> Id = "472" Name = "m220model_v2/OdometrySubsystem/Product1" SignalName = "" PortNum = "0" Width = "1" DataType = "real_T" </signal>
<signal> Id = "473" Name = "m220model_v2/M220MowerDecksSubsystem/Switch5" SignalName = "" PortNum = "0" Width = "1" DataType = "real_T" </signal>
<signal> Id = "474" Name = "m220model_v2/M220MowerDecksSubsystem/Switch6" SignalName = "" PortNum = "0" Width = "1" DataType = "real_T" </signal>
<signal> Id = "475" Name = "m220model_v2/M220MowerDecksSubsystem/Switch7" SignalName = "" PortNum = "0" Width = "1" DataType = "real_T" </signal>
<signal> Id = "476" Name = "m220model_v2/M220MowerDecksSubsystem/Switch21" SignalName = "" PortNum = "0" Width = "1" DataType = "real_T" </signal>
<signal> Id = "477" Name = "m220model_v2/M220MowerDecksSubsystem/Switch22" SignalName = "" PortNum = "0" Width = "1" DataType = "real_T" </signal>
<signal> Id = "478" Name = "m220model_v2/M220MowerDecksSubsystem/Switch23" SignalName = "" PortNum = "0" Width = "1" DataType = "real_T" </signal>
<signal> Id = "479" Name = "m220model_v2/M220MowerDecksSubsystem/Switch13" SignalName = "" PortNum = "0" Width = "1" DataType = "real_T" </signal>
<signal> Id = "480" Name = "m220model_v2/M220MowerDecksSubsystem/Switch14" SignalName = "" PortNum = "0" Width = "1" DataType = "real_T" </signal>
<signal> Id = "481" Name = "m220model_v2/M220MowerDecksSubsystem/Switch15" SignalName = "" PortNum = "0" Width = "1" DataType = "real_T" </signal>
<signal> Id = "482" Name = "m220model_v2/NI9853_1 Subsystem/Lookup Table Dynamic1" SignalName = "" PortNum = "0" Width = "1" DataType = "real_T" </signal>
<signal> Id = "483" Name = "m220model_v2/NI9853_1 Subsystem/Lookup Table Dynamic2" SignalName = "" PortNum = "0" Width = "1" DataType = "real_T" </signal>
<signal> Id = "484" Name = "m220model_v2/M220HydraulicOil/Switch1" SignalName = "" PortNum = "0" Width = "1" DataType = "real_T" </signal>
<signal> Id = "485" Name = "m220model_v2/M220HydraulicOil/Square3" SignalName = "" PortNum = "0" Width = "1" DataType = "real_T" </signal>
<signal> Id = "486" Name = "m220model_v2/M220HydraulicOil/Add" SignalName = "" PortNum = "0" Width = "1" DataType = "real_T" </signal>
<signal> Id = "487" Name = "m220model_v2/M220HydraulicOil/Sqrt" SignalName = "" PortNum = "0" Width = "1" DataType = "real_T" </signal>
<signal> Id = "488" Name = "m220model_v2/M220HydraulicOil/Lookup Table Dynamic2" SignalName = "" PortNum = "0" Width = "1" DataType = "real_T" </signal>
<signal> Id = "489" Name = "m220model_v2/M220HeatExchangerTempSubsystem/Switch1" SignalName = "" PortNum = "0" Width = "1" DataType = "real_T" </signal>
<signal> Id = "490" Name = "m220model_v2/M220HeatExchangerTempSubsystem/Lookup Table Dynamic" SignalName = "" PortNum = "0" Width = "1" DataType = "real_T" </signal>
<signal> Id = "491" Name = "m220model_v2/M220HeatExchangerTempSubsystem/Subtract" SignalName = "" PortNum = "0" Width = "1" DataType = "real_T" </signal>
<signal> Id = "492" Name = "m220model_v2/M220ControlBoxTempSubsystem/Lookup Table Dynamic" SignalName = "" PortNum = "0" Width = "1" DataType = "real_T" </signal>
<signal> Id = "493" Name = "m220model_v2/4TireTractionForces/Tire4TractionForces/VerticalForceTire4/SlipRatioTire4/Divide1" SignalName = "" PortNum = "0" Width = "1" DataType = "real_T" </signal>
<signal> Id = "494" Name = "m220model_v2/4TireTractionForces/Tire4TractionForces/VerticalForceTire4/SlipRatioTire4/Divide" SignalName = "" PortNum = "0" Width = "1" DataType = "real_T" </signal>
<signal> Id = "495" Name = "m220model_v2/4TireTractionForces/Tire4TractionForces/Subtract" SignalName = "" PortNum = "0" Width = "1" DataType = "real_T" </signal>
<signal> Id = "496" Name = "m220model_v2/4TireTractionForces/Tire4TractionForces/Product3" SignalName = "" PortNum = "0" Width = "1" DataType = "real_T" </signal>
<signal> Id = "497" Name = "m220model_v2/4TireTractionForces/Tire3TractionForces/VerticalForceTire3/SlipRatioTire3/Divide1" SignalName = "" PortNum = "0" Width = "1" DataType = "real_T" </signal>
<signal> Id = "498" Name = "m220model_v2/4TireTractionForces/Tire3TractionForces/VerticalForceTire3/SlipRatioTire3/Divide" SignalName = "" PortNum = "0" Width = "1" DataType = "real_T" </signal>
<signal> Id = "499" Name = "m220model_v2/4TireTractionForces/Tire3TractionForces/Subtract" SignalName = "" PortNum = "0" Width = "1" DataType = "real_T" </signal>
<signal> Id = "500" Name = "m220model_v2/4TireTractionForces/Tire3TractionForces/Product3" SignalName = "" PortNum = "0" Width = "1" DataType = "real_T" </signal>
<signal> Id = "501" Name = "m220model_v2/4TireTractionForces/Tire2TractionForces/VerticalForceTire2/SlipRatioTire2/Divide1" SignalName = "" PortNum = "0" Width = "1" DataType = "real_T" </signal>
<signal> Id = "502" Name = "m220model_v2/4TireTractionForces/Tire2TractionForces/VerticalForceTire2/SlipRatioTire2/Divide" SignalName = "" PortNum = "0" Width = "1" DataType = "real_T" </signal>
<signal> Id = "503" Name = "m220model_v2/4TireTractionForces/Tire2TractionForces/Subtract" SignalName = "" PortNum = "0" Width = "1" DataType = "real_T" </signal>
<signal> Id = "504" Name = "m220model_v2/4TireTractionForces/Tire2TractionForces/Product3" SignalName = "" PortNum = "0" Width = "1" DataType = "real_T" </signal>
<signal> Id = "505" Name = "m220model_v2/4TireTractionForces/Tire1TractionForces/VerticalForceTire1/SlipRatioTire1/Divide1" SignalName = "" PortNum = "0" Width = "1" DataType = "real_T" </signal>
<signal> Id = "506" Name = "m220model_v2/4TireTractionForces/Tire1TractionForces/VerticalForceTire1/SlipRatioTire1/Divide" SignalName = "" PortNum = "0" Width = "1" DataType = "real_T" </signal>
<signal> Id = "507" Name = "m220model_v2/4TireTractionForces/Tire1TractionForces/Subtract" SignalName = "" PortNum = "0" Width = "1" DataType = "real_T" </signal>
<signal> Id = "508" Name = "m220model_v2/4TireTractionForces/Tire1TractionForces/Product3" SignalName = "" PortNum = "0" Width = "1" DataType = "real_T" </signal>
<signal> Id = "509" Name = "m220model_v2/OdometrySubsystem/Data Type Conversion" SignalName = "" PortNum = "0" Width = "1" DataType = "uint32_T" </signal>
<signal> Id = "510" Name = "m220model_v2/OdometrySubsystem/Data Type Conversion1" SignalName = "" PortNum = "0" Width = "1" DataType = "uint32_T" </signal>
<signal> Id = "511" Name = "m220model_v2/M220HydraulicOil/Compare To Constant/Compare" SignalName = "" PortNum = "0" Width = "1" DataType = "boolean_T" </signal>
<signal> Id = "512" Name = "m220model_v2/M220MachineEnableFunction/Logical Operator1" SignalName = "" PortNum = "0" Width = "1" DataType = "boolean_T" </signal>
<signal> Id = "513" Name = "m220model_v2/M220MachineEnableFunction/Logical Operator4" SignalName = "" PortNum = "0" Width = "1" DataType = "boolean_T" </signal>
<signal> Id = "514" Name = "m220model_v2/M220MachineEnableFunction/Logical Operator" SignalName = "" PortNum = "0" Width = "1" DataType = "boolean_T" </signal>
<signal> Id = "515" Name = "m220model_v2/4TireTractionForces/Tire1TractionForces/VerticalForceTire1/SlipRatioTire1/Relational Operator" SignalName = "" PortNum = "0" Width = "1" DataType = "boolean_T" </signal>
<signal> Id = "516" Name = "m220model_v2/4TireTractionForces/Tire2TractionForces/VerticalForceTire2/SlipRatioTire2/Relational Operator" SignalName = "" PortNum = "0" Width = "1" DataType = "boolean_T" </signal>
<signal> Id = "517" Name = "m220model_v2/4TireTractionForces/Tire3TractionForces/VerticalForceTire3/SlipRatioTire3/Relational Operator" SignalName = "" PortNum = "0" Width = "1" DataType = "boolean_T" </signal>
<signal> Id = "518" Name = "m220model_v2/4TireTractionForces/Tire4TractionForces/VerticalForceTire4/SlipRatioTire4/Relational Operator" SignalName = "" PortNum = "0" Width = "1" DataType = "boolean_T" </signal>
<signal> Id = "519" Name = "m220model_v2/M220MowerDecksSubsystem/Compare To Constant5/Compare" SignalName = "" PortNum = "0" Width = "1" DataType = "boolean_T" </signal>
<signal> Id = "520" Name = "m220model_v2/M220MowerDecksSubsystem/Compare To Constant1/Compare" SignalName = "" PortNum = "0" Width = "1" DataType = "boolean_T" </signal>
<signal> Id = "521" Name = "m220model_v2/M220MowerDecksSubsystem/Logical Operator4" SignalName = "" PortNum = "0" Width = "1" DataType = "boolean_T" </signal>
<signal> Id = "522" Name = "m220model_v2/M220MowerDecksSubsystem/Logical Operator8" SignalName = "" PortNum = "0" Width = "1" DataType = "boolean_T" </signal>
<signal> Id = "523" Name = "m220model_v2/M220MowerDecksSubsystem/Logical Operator" SignalName = "" PortNum = "0" Width = "1" DataType = "boolean_T" </signal>
<signal> Id = "524" Name = "m220model_v2/M220MowerDecksSubsystem/Compare To Constant6/Compare" SignalName = "" PortNum = "0" Width = "1" DataType = "boolean_T" </signal>
<signal> Id = "525" Name = "m220model_v2/M220MowerDecksSubsystem/Compare To Constant9/Compare" SignalName = "" PortNum = "0" Width = "1" DataType = "boolean_T" </signal>
<signal> Id = "526" Name = "m220model_v2/M220MowerDecksSubsystem/Logical Operator5" SignalName = "" PortNum = "0" Width = "1" DataType = "boolean_T" </signal>
<signal> Id = "527" Name = "m220model_v2/M220MowerDecksSubsystem/Logical Operator9" SignalName = "" PortNum = "0" Width = "1" DataType = "boolean_T" </signal>
<signal> Id = "528" Name = "m220model_v2/M220MowerDecksSubsystem/Logical Operator1" SignalName = "" PortNum = "0" Width = "1" DataType = "boolean_T" </signal>
<signal> Id = "529" Name = "m220model_v2/M220MowerDecksSubsystem/Logical Operator28" SignalName = "" PortNum = "0" Width = "1" DataType = "boolean_T" </signal>
<signal> Id = "530" Name = "m220model_v2/M220MowerDecksSubsystem/Compare To Constant21/Compare" SignalName = "" PortNum = "0" Width = "1" DataType = "boolean_T" </signal>
<signal> Id = "531" Name = "m220model_v2/M220MowerDecksSubsystem/Compare To Constant22/Compare" SignalName = "" PortNum = "0" Width = "1" DataType = "boolean_T" </signal>
<signal> Id = "532" Name = "m220model_v2/M220MowerDecksSubsystem/Logical Operator22" SignalName = "" PortNum = "0" Width = "1" DataType = "boolean_T" </signal>
<signal> Id = "533" Name = "m220model_v2/M220MowerDecksSubsystem/Logical Operator26" SignalName = "" PortNum = "0" Width = "1" DataType = "boolean_T" </signal>
<signal> Id = "534" Name = "m220model_v2/M220MowerDecksSubsystem/Logical Operator29" SignalName = "" PortNum = "0" Width = "1" DataType = "boolean_T" </signal>
<signal> Id = "535" Name = "m220model_v2/M220MowerDecksSubsystem/Compare To Constant25/Compare" SignalName = "" PortNum = "0" Width = "1" DataType = "boolean_T" </signal>
<signal> Id = "536" Name = "m220model_v2/M220MowerDecksSubsystem/Compare To Constant26/Compare" SignalName = "" PortNum = "0" Width = "1" DataType = "boolean_T" </signal>
<signal> Id = "537" Name = "m220model_v2/M220MowerDecksSubsystem/Logical Operator23" SignalName = "" PortNum = "0" Width = "1" DataType = "boolean_T" </signal>
<signal> Id = "538" Name = "m220model_v2/M220MowerDecksSubsystem/Logical Operator27" SignalName = "" PortNum = "0" Width = "1" DataType = "boolean_T" </signal>
<signal> Id = "539" Name = "m220model_v2/M220MowerDecksSubsystem/Compare To Constant3/Compare" SignalName = "" PortNum = "0" Width = "1" DataType = "boolean_T" </signal>
<signal> Id = "540" Name = "m220model_v2/M220MowerDecksSubsystem/Compare To Constant4/Compare" SignalName = "" PortNum = "0" Width = "1" DataType = "boolean_T" </signal>
<signal> Id = "541" Name = "m220model_v2/M220MowerDecksSubsystem/Logical Operator2" SignalName = "" PortNum = "0" Width = "1" DataType = "boolean_T" </signal>
<signal> Id = "542" Name = "m220model_v2/M220MowerDecksSubsystem/Logical Operator6" SignalName = "" PortNum = "0" Width = "1" DataType = "boolean_T" </signal>
<signal> Id = "543" Name = "m220model_v2/M220MowerDecksSubsystem/Compare To Constant7/Compare" SignalName = "" PortNum = "0" Width = "1" DataType = "boolean_T" </signal>
<signal> Id = "544" Name = "m220model_v2/M220MowerDecksSubsystem/Compare To Constant8/Compare" SignalName = "" PortNum = "0" Width = "1" DataType = "boolean_T" </signal>
<signal> Id = "545" Name = "m220model_v2/M220MowerDecksSubsystem/Logical Operator3" SignalName = "" PortNum = "0" Width = "1" DataType = "boolean_T" </signal>
<signal> Id = "546" Name = "m220model_v2/M220MowerDecksSubsystem/Logical Operator7" SignalName = "" PortNum = "0" Width = "1" DataType = "boolean_T" </signal>
<signal> Id = "547" Name = "m220model_v2/M220MowerDecksSubsystem/Compare To Constant14/Compare" SignalName = "" PortNum = "0" Width = "1" DataType = "boolean_T" </signal>
<signal> Id = "548" Name = "m220model_v2/M220MowerDecksSubsystem/Compare To Constant10/Compare" SignalName = "" PortNum = "0" Width = "1" DataType = "boolean_T" </signal>
<signal> Id = "549" Name = "m220model_v2/M220MowerDecksSubsystem/Logical Operator14" SignalName = "" PortNum = "0" Width = "1" DataType = "boolean_T" </signal>
<signal> Id = "550" Name = "m220model_v2/M220MowerDecksSubsystem/Logical Operator18" SignalName = "" PortNum = "0" Width = "1" DataType = "boolean_T" </signal>
<signal> Id = "551" Name = "m220model_v2/M220MowerDecksSubsystem/Logical Operator10" SignalName = "" PortNum = "0" Width = "1" DataType = "boolean_T" </signal>
<signal> Id = "552" Name = "m220model_v2/M220MowerDecksSubsystem/Compare To Constant15/Compare" SignalName = "" PortNum = "0" Width = "1" DataType = "boolean_T" </signal>
<signal> Id = "553" Name = "m220model_v2/M220MowerDecksSubsystem/Compare To Constant18/Compare" SignalName = "" PortNum = "0" Width = "1" DataType = "boolean_T" </signal>
<signal> Id = "554" Name = "m220model_v2/M220MowerDecksSubsystem/Logical Operator15" SignalName = "" PortNum = "0" Width = "1" DataType = "boolean_T" </signal>
<signal> Id = "555" Name = "m220model_v2/M220MowerDecksSubsystem/Logical Operator19" SignalName = "" PortNum = "0" Width = "1" DataType = "boolean_T" </signal>
<signal> Id = "556" Name = "m220model_v2/M220MowerDecksSubsystem/Logical Operator11" SignalName = "" PortNum = "0" Width = "1" DataType = "boolean_T" </signal>
<signal> Id = "557" Name = "m220model_v2/M220MowerDecksSubsystem/Compare To Constant12/Compare" SignalName = "" PortNum = "0" Width = "1" DataType = "boolean_T" </signal>
<signal> Id = "558" Name = "m220model_v2/M220MowerDecksSubsystem/Compare To Constant13/Compare" SignalName = "" PortNum = "0" Width = "1" DataType = "boolean_T" </signal>
<signal> Id = "559" Name = "m220model_v2/M220MowerDecksSubsystem/Logical Operator12" SignalName = "" PortNum = "0" Width = "1" DataType = "boolean_T" </signal>
<signal> Id = "560" Name = "m220model_v2/M220MowerDecksSubsystem/Logical Operator16" SignalName = "" PortNum = "0" Width = "1" DataType = "boolean_T" </signal>
<signal> Id = "561" Name = "m220model_v2/M220MowerDecksSubsystem/Compare To Constant16/Compare" SignalName = "" PortNum = "0" Width = "1" DataType = "boolean_T" </signal>
<signal> Id = "562" Name = "m220model_v2/M220MowerDecksSubsystem/Compare To Constant17/Compare" SignalName = "" PortNum = "0" Width = "1" DataType = "boolean_T" </signal>
<signal> Id = "563" Name = "m220model_v2/M220MowerDecksSubsystem/Logical Operator13" SignalName = "" PortNum = "0" Width = "1" DataType = "boolean_T" </signal>
<signal> Id = "564" Name = "m220model_v2/M220MowerDecksSubsystem/Logical Operator17" SignalName = "" PortNum = "0" Width = "1" DataType = "boolean_T" </signal>
<signal> Id = "565" Name = "m220model_v2/M220MowerDecksSubsystem/Compare To Constant23/Compare" SignalName = "" PortNum = "0" Width = "1" DataType = "boolean_T" </signal>
<signal> Id = "566" Name = "m220model_v2/M220MowerDecksSubsystem/Compare To Constant19/Compare" SignalName = "" PortNum = "0" Width = "1" DataType = "boolean_T" </signal>
<signal> Id = "567" Name = "m220model_v2/M220MowerDecksSubsystem/Logical Operator24" SignalName = "" PortNum = "0" Width = "1" DataType = "boolean_T" </signal>
<signal> Id = "568" Name = "m220model_v2/M220MowerDecksSubsystem/Logical Operator20" SignalName = "" PortNum = "0" Width = "1" DataType = "boolean_T" </signal>
<signal> Id = "569" Name = "m220model_v2/M220MowerDecksSubsystem/Compare To Constant24/Compare" SignalName = "" PortNum = "0" Width = "1" DataType = "boolean_T" </signal>
<signal> Id = "570" Name = "m220model_v2/M220MowerDecksSubsystem/Compare To Constant27/Compare" SignalName = "" PortNum = "0" Width = "1" DataType = "boolean_T" </signal>
<signal> Id = "571" Name = "m220model_v2/M220MowerDecksSubsystem/Logical Operator25" SignalName = "" PortNum = "0" Width = "1" DataType = "boolean_T" </signal>
<signal> Id = "572" Name = "m220model_v2/M220MowerDecksSubsystem/Logical Operator21" SignalName = "" PortNum = "0" Width = "1" DataType = "boolean_T" </signal>
</signallist>
