<portlist>
<inport> Id = "1"  Name = "SteeringPosMsg_int" Width = "1" DataType = "real_T" </inport>
<inport> Id = "2"  Name = "JoystickPosMsg_int" Width = "1" DataType = "real_T" </inport>
<inport> Id = "3"  Name = "JoystickButton1Msg_bool" Width = "1" DataType = "real_T" </inport>
<inport> Id = "4"  Name = "JoystickButton2Msg_bool" Width = "1" DataType = "real_T" </inport>
<inport> Id = "5"  Name = "JoystickButton3Msg_bool" Width = "1" DataType = "real_T" </inport>
<inport> Id = "6"  Name = "JoystickButton4Msg_bool" Width = "1" DataType = "real_T" </inport>
<inport> Id = "7"  Name = "JoystickButton5Msg_bool" Width = "1" DataType = "real_T" </inport>
<inport> Id = "8"  Name = "JoystickButton6Msg_bool" Width = "1" DataType = "real_T" </inport>
<inport> Id = "9"  Name = "JoystickButton7Msg_bool" Width = "1" DataType = "real_T" </inport>
<inport> Id = "10"  Name = "JoystickButton8Msg_bool" Width = "1" DataType = "real_T" </inport>
<inport> Id = "11"  Name = "JoystickButton9Msg_bool" Width = "1" DataType = "real_T" </inport>
<inport> Id = "12"  Name = "JoystickButton10Msg_bool" Width = "1" DataType = "real_T" </inport>
<inport> Id = "13"  Name = "HMIVehicleSpeed_mph" Width = "1" DataType = "real_T" </inport>
<inport> Id = "14"  Name = "HMIVehicleSpeedOvrd_bool" Width = "1" DataType = "boolean_T" </inport>
<inport> Id = "15"  Name = "RlyEStarters_bool" Width = "1" DataType = "boolean_T" </inport>
<inport> Id = "16"  Name = "Rly1LightsRight_bool" Width = "1" DataType = "real_T" </inport>
<inport> Id = "17"  Name = "Rly2LightsLeft_bool" Width = "1" DataType = "real_T" </inport>
<inport> Id = "18"  Name = "Rly3LightsRearSide_bool" Width = "1" DataType = "real_T" </inport>
<inport> Id = "19"  Name = "Rly4LightsAux_bool" Width = "1" DataType = "real_T" </inport>
<inport> Id = "20"  Name = "Rly5FlashRight_bool" Width = "1" DataType = "real_T" </inport>
<inport> Id = "21"  Name = "Rly6FlashLeft_bool" Width = "1" DataType = "real_T" </inport>
<inport> Id = "22"  Name = "Rly7Horn_bool" Width = "1" DataType = "real_T" </inport>
<inport> Id = "23"  Name = "NI9426_1Spare1_bool" Width = "1" DataType = "real_T" </inport>
<inport> Id = "24"  Name = "Ssr2Brake_bool" Width = "1" DataType = "real_T" </inport>
<inport> Id = "25"  Name = "Ssr3LoadA_bool" Width = "1" DataType = "real_T" </inport>
<inport> Id = "26"  Name = "Ssr4FloatFront_bool" Width = "1" DataType = "real_T" </inport>
<inport> Id = "27"  Name = "Ssr5FloatRight_bool" Width = "1" DataType = "real_T" </inport>
<inport> Id = "28"  Name = "Ssr6FloatLeft_bool" Width = "1" DataType = "real_T" </inport>
<inport> Id = "29"  Name = "NI9426_1Spare2_bool" Width = "1" DataType = "real_T" </inport>
<inport> Id = "30"  Name = "NI9426_1Spare3_bool" Width = "1" DataType = "real_T" </inport>
<inport> Id = "31"  Name = "NI9426_1Spare4_bool" Width = "1" DataType = "real_T" </inport>
<inport> Id = "32"  Name = "RlyCPower_bool" Width = "1" DataType = "boolean_T" </inport>
<inport> Id = "33"  Name = "NI94261Spare5_bool" Width = "1" DataType = "real_T" </inport>
<inport> Id = "34"  Name = "RlyD2HydFan_bool" Width = "1" DataType = "real_T" </inport>
<inport> Id = "35"  Name = "LEDAMS_bool" Width = "1" DataType = "real_T" </inport>
<inport> Id = "36"  Name = "LEDEnable_bool" Width = "1" DataType = "real_T" </inport>
<inport> Id = "37"  Name = "Buzzer_bool" Width = "1" DataType = "real_T" </inport>
<inport> Id = "38"  Name = "NI9426_1Spare6_bool" Width = "1" DataType = "real_T" </inport>
<inport> Id = "39"  Name = "NI9426_1Spare7_bool" Width = "1" DataType = "real_T" </inport>
<inport> Id = "40"  Name = "RlyFAltEnable_bool" Width = "1" DataType = "real_T" </inport>
<inport> Id = "41"  Name = "SsrBlower_bool" Width = "1" DataType = "real_T" </inport>
<inport> Id = "42"  Name = "BackupAlarm_bool" Width = "1" DataType = "real_T" </inport>
<inport> Id = "43"  Name = "RlyAutoStart_bool" Width = "1" DataType = "boolean_T" </inport>
<inport> Id = "44"  Name = "RlyJCBEngineKill_bool" Width = "1" DataType = "real_T" </inport>
<inport> Id = "45"  Name = "NI9426_1Spare8_bool" Width = "1" DataType = "real_T" </inport>
<inport> Id = "46"  Name = "NI9426_1Spare9_bool" Width = "1" DataType = "real_T" </inport>
<inport> Id = "47"  Name = "RearEStopButton_bool" Width = "1" DataType = "real_T" </inport>
<inport> Id = "48"  Name = "NI9476Spare1_bool" Width = "1" DataType = "real_T" </inport>
<inport> Id = "49"  Name = "NI9476Spare2_bool" Width = "1" DataType = "real_T" </inport>
<inport> Id = "50"  Name = "NI9476Spare3_bool" Width = "1" DataType = "real_T" </inport>
<inport> Id = "51"  Name = "NI9476Spare4_bool" Width = "1" DataType = "real_T" </inport>
<inport> Id = "52"  Name = "NI9476Spare5_bool" Width = "1" DataType = "real_T" </inport>
<inport> Id = "53"  Name = "NI9476Spare6_bool" Width = "1" DataType = "real_T" </inport>
<inport> Id = "54"  Name = "NI9476Spare7_bool" Width = "1" DataType = "real_T" </inport>
<inport> Id = "55"  Name = "NI9476Spare8_bool" Width = "1" DataType = "real_T" </inport>
<inport> Id = "56"  Name = "NI9476Spare9_bool" Width = "1" DataType = "real_T" </inport>
<inport> Id = "57"  Name = "NI9476Spare10_bool" Width = "1" DataType = "real_T" </inport>
<inport> Id = "58"  Name = "NI9476Spare11_bool" Width = "1" DataType = "real_T" </inport>
<inport> Id = "59"  Name = "NI9476Spare12_bool" Width = "1" DataType = "real_T" </inport>
<inport> Id = "60"  Name = "NI9476Spare13_bool" Width = "1" DataType = "real_T" </inport>
<inport> Id = "61"  Name = "NI9476Spare14_bool" Width = "1" DataType = "real_T" </inport>
<inport> Id = "62"  Name = "NI9476Spare15_bool" Width = "1" DataType = "real_T" </inport>
<inport> Id = "63"  Name = "NI9476Spare16_bool" Width = "1" DataType = "real_T" </inport>
<inport> Id = "64"  Name = "NI9476Spare17_bool" Width = "1" DataType = "real_T" </inport>
<inport> Id = "65"  Name = "CabEstop_bool" Width = "1" DataType = "real_T" </inport>
<inport> Id = "66"  Name = "MachineEnableSwitch_bool" Width = "1" DataType = "real_T" </inport>
<inport> Id = "67"  Name = "AutonomySwitch_bool" Width = "1" DataType = "real_T" </inport>
<inport> Id = "68"  Name = "NI9476Spare18_bool" Width = "1" DataType = "real_T" </inport>
<inport> Id = "69"  Name = "MainKeySwitch_bool" Width = "1" DataType = "real_T" </inport>
<inport> Id = "70"  Name = "NI9476Spare19_bool" Width = "1" DataType = "real_T" </inport>
<inport> Id = "71"  Name = "AutonomyRemoteStopSwitch_bool" Width = "1" DataType = "real_T" </inport>
<inport> Id = "72"  Name = "NI9476Spare20_bool" Width = "1" DataType = "real_T" </inport>
<inport> Id = "73"  Name = "NI9476Spare21_bool" Width = "1" DataType = "real_T" </inport>
<inport> Id = "74"  Name = "HMIHydraulOilSensorOvrd_bool" Width = "1" DataType = "real_T" </inport>
<inport> Id = "75"  Name = "HMIHydraulOilSensor_qts" Width = "1" DataType = "real_T" </inport>
<inport> Id = "76"  Name = "HMISeatSwitchOvrd_bool" Width = "1" DataType = "real_T" </inport>
<inport> Id = "77"  Name = "HMISeatSwitch_bool" Width = "1" DataType = "real_T" </inport>
<inport> Id = "78"  Name = "NI9426_2Spare1_bool" Width = "1" DataType = "real_T" </inport>
<inport> Id = "79"  Name = "NI9426_2Spare2_bool" Width = "1" DataType = "real_T" </inport>
<inport> Id = "80"  Name = "NI9426_2Spare3_bool" Width = "1" DataType = "real_T" </inport>
<inport> Id = "81"  Name = "NI9426_2Spare4_bool" Width = "1" DataType = "real_T" </inport>
<inport> Id = "82"  Name = "NI9426_2Spare5_bool" Width = "1" DataType = "real_T" </inport>
<inport> Id = "83"  Name = "NI9426_2Spare6_bool" Width = "1" DataType = "real_T" </inport>
<inport> Id = "84"  Name = "NI9426_2Spare7_bool" Width = "1" DataType = "real_T" </inport>
<inport> Id = "85"  Name = "NI9426_2Spare8_bool" Width = "1" DataType = "real_T" </inport>
<inport> Id = "86"  Name = "NI9426_2Spare9_bool" Width = "1" DataType = "real_T" </inport>
<inport> Id = "87"  Name = "NI9426_2Spare10_bool" Width = "1" DataType = "real_T" </inport>
<inport> Id = "88"  Name = "NI9426_2Spare11_bool" Width = "1" DataType = "real_T" </inport>
<inport> Id = "89"  Name = "NI9426_2Spare12_bool" Width = "1" DataType = "real_T" </inport>
<inport> Id = "90"  Name = "NI9426_2Spare13_bool" Width = "1" DataType = "real_T" </inport>
<inport> Id = "91"  Name = "NI9426_2Spare14_bool" Width = "1" DataType = "real_T" </inport>
<inport> Id = "92"  Name = "NI9426_2Spare15_bool" Width = "1" DataType = "real_T" </inport>
<inport> Id = "93"  Name = "NI9426_2Spare16_bool" Width = "1" DataType = "real_T" </inport>
<inport> Id = "94"  Name = "NI9426_2Spare17_bool" Width = "1" DataType = "real_T" </inport>
<inport> Id = "95"  Name = "hv_DriveFwd_bool" Width = "1" DataType = "uint32_T" </inport>
<inport> Id = "96"  Name = "hv_DriveReverse_bool" Width = "1" DataType = "uint32_T" </inport>
<inport> Id = "97"  Name = "hv_SteerRtA_bool" Width = "1" DataType = "real_T" </inport>
<inport> Id = "98"  Name = "hv_SteerLfA_bool" Width = "1" DataType = "real_T" </inport>
<inport> Id = "99"  Name = "hv_SteerLfB_bool" Width = "1" DataType = "real_T" </inport>
<inport> Id = "100"  Name = "hv_SteerRtB_bool" Width = "1" DataType = "real_T" </inport>
<inport> Id = "101"  Name = "hv_TracRight_bool" Width = "1" DataType = "real_T" </inport>
<inport> Id = "102"  Name = "hv_TracLeft_bool" Width = "1" DataType = "real_T" </inport>
<inport> Id = "103"  Name = "hv_Dk_Ft_Lift_bool" Width = "1" DataType = "boolean_T" </inport>
<inport> Id = "104"  Name = "hv_Dk_Ft_Low_bool" Width = "1" DataType = "boolean_T" </inport>
<inport> Id = "105"  Name = "hv_Dk_Rt_Lift_bool" Width = "1" DataType = "boolean_T" </inport>
<inport> Id = "106"  Name = "hv_Dk_Rt_Low_bool" Width = "1" DataType = "boolean_T" </inport>
<inport> Id = "107"  Name = "hv_Dk_Unlatch_bool" Width = "1" DataType = "boolean_T" </inport>
<inport> Id = "108"  Name = "hv_Dk_Lf_Low_bool" Width = "1" DataType = "boolean_T" </inport>
<inport> Id = "109"  Name = "hv_Dk_Lf_Lift_bool" Width = "1" DataType = "boolean_T" </inport>
<inport> Id = "110"  Name = "NI9475Spare1_bool" Width = "1" DataType = "real_T" </inport>
<inport> Id = "111"  Name = "NI9475Spare2_bool" Width = "1" DataType = "real_T" </inport>
<inport> Id = "112"  Name = "NI9475Spare3_bool" Width = "1" DataType = "real_T" </inport>
<inport> Id = "113"  Name = "NI9475Spare4_bool" Width = "1" DataType = "real_T" </inport>
<inport> Id = "114"  Name = "NI9264_1Spare1_int" Width = "1" DataType = "real_T" </inport>
<inport> Id = "115"  Name = "NI9264_1Spare2_int" Width = "1" DataType = "real_T" </inport>
<inport> Id = "116"  Name = "NI9264_1Spare3_int" Width = "1" DataType = "real_T" </inport>
<inport> Id = "117"  Name = "NI9264_1Spare4_int" Width = "1" DataType = "real_T" </inport>
<inport> Id = "118"  Name = "HMIOvrdPower5VMonitor_bool" Width = "1" DataType = "real_T" </inport>
<inport> Id = "119"  Name = "HMIOvrdPower12VMonitor_bool" Width = "1" DataType = "real_T" </inport>
<inport> Id = "120"  Name = "HMIOvrdPower24VMonitor_bool" Width = "1" DataType = "real_T" </inport>
<inport> Id = "121"  Name = "HMIPower12VMonitor_Vdc" Width = "1" DataType = "real_T" </inport>
<inport> Id = "122"  Name = "HMIPower24VMonitor_Vdc" Width = "1" DataType = "real_T" </inport>
<inport> Id = "123"  Name = "HMIPower5VMonitor_Vdc" Width = "1" DataType = "real_T" </inport>
<inport> Id = "124"  Name = "HMIOvrdHeatExchangeTemp_bool" Width = "1" DataType = "real_T" </inport>
<inport> Id = "125"  Name = "HMIHeatExchangerTemp_degC" Width = "1" DataType = "real_T" </inport>
<inport> Id = "126"  Name = "HeatExchangerTemp_mV" Width = "1" DataType = "real_T" </inport>
<inport> Id = "127"  Name = "HMIOvrdControlBoxTemp_bool" Width = "1" DataType = "real_T" </inport>
<inport> Id = "128"  Name = "HMIControlBoxTemp_degC" Width = "1" DataType = "real_T" </inport>
<inport> Id = "129"  Name = "ControlBoxTemp_mV" Width = "1" DataType = "real_T" </inport>
<outport> Id = "1"  Name = "Vy_m_sec" Width = "1" DataType = "real_T" </outport>
<outport> Id = "2"  Name = "Vx_m_sec" Width = "1" DataType = "real_T" </outport>
<outport> Id = "3"  Name = "Yr_deg_sec" Width = "1" DataType = "real_T" </outport>
<outport> Id = "4"  Name = "RevFrntLftTire_RPMin" Width = "1" DataType = "real_T" </outport>
<outport> Id = "5"  Name = "RevFrntRghtTire_RPMin" Width = "1" DataType = "real_T" </outport>
<outport> Id = "6"  Name = "SpdEnc1Line1Frq_pps" Width = "1" DataType = "uint64_T" </outport>
<outport> Id = "7"  Name = "SpdEnc1Line2Frq_int" Width = "1" DataType = "uint64_T" </outport>
<outport> Id = "8"  Name = "SpdEnc2Line1Frq_pps" Width = "1" DataType = "uint64_T" </outport>
<outport> Id = "9"  Name = "SpdEnc2Line1Frq_int" Width = "1" DataType = "uint64_T" </outport>
<outport> Id = "10"  Name = "DO4NI9475Mon_bool" Width = "1" DataType = "real_T" </outport>
<outport> Id = "11"  Name = "DO5NI9475Mon_bool" Width = "1" DataType = "real_T" </outport>
<outport> Id = "12"  Name = "DO6NI9475Mon_bool" Width = "1" DataType = "real_T" </outport>
<outport> Id = "13"  Name = "DO7NI9475Mon_bool" Width = "1" DataType = "real_T" </outport>
<outport> Id = "14"  Name = "LightsRight_bool" Width = "1" DataType = "real_T" </outport>
<outport> Id = "15"  Name = "LightsLeft_bool" Width = "1" DataType = "real_T" </outport>
<outport> Id = "16"  Name = "LightsRearSide_bool" Width = "1" DataType = "real_T" </outport>
<outport> Id = "17"  Name = "LightsAux_bool" Width = "1" DataType = "real_T" </outport>
<outport> Id = "18"  Name = "Horn_bool" Width = "1" DataType = "real_T" </outport>
<outport> Id = "19"  Name = "NI9426_1Spare1Out_bool" Width = "1" DataType = "real_T" </outport>
<outport> Id = "20"  Name = "NI9426_1Spare5Out_bool" Width = "1" DataType = "real_T" </outport>
<outport> Id = "21"  Name = "NI9426_1Spare6Out_bool" Width = "1" DataType = "real_T" </outport>
<outport> Id = "22"  Name = "NI9426_1Spare7Out_bool" Width = "1" DataType = "real_T" </outport>
<outport> Id = "23"  Name = "NI9426_1Spare8Out_bool" Width = "1" DataType = "real_T" </outport>
<outport> Id = "24"  Name = "NI9426_1Spare9Out_bool" Width = "1" DataType = "real_T" </outport>
<outport> Id = "25"  Name = "NI9426_1Spare2Out_bool" Width = "1" DataType = "real_T" </outport>
<outport> Id = "26"  Name = "NI9426_1Spare3Out_bool" Width = "1" DataType = "real_T" </outport>
<outport> Id = "27"  Name = "NI9426_1Spare4Out_bool" Width = "1" DataType = "real_T" </outport>
<outport> Id = "28"  Name = "AutonomyEnabledIndicator_bool" Width = "1" DataType = "real_T" </outport>
<outport> Id = "29"  Name = "MachineEnabledIndicator_bool" Width = "1" DataType = "real_T" </outport>
<outport> Id = "30"  Name = "InCabBuzzer_bool" Width = "1" DataType = "real_T" </outport>
<outport> Id = "31"  Name = "Altenator408VACEnableRly_bool" Width = "1" DataType = "real_T" </outport>
<outport> Id = "32"  Name = "AirKnifeRly_bool" Width = "1" DataType = "real_T" </outport>
<outport> Id = "33"  Name = "BackupAlarmEnable_bool" Width = "1" DataType = "real_T" </outport>
<outport> Id = "34"  Name = "AutoStartRelayEnable_bool" Width = "1" DataType = "boolean_T" </outport>
<outport> Id = "35"  Name = "JCBEngnieKill_bool" Width = "1" DataType = "real_T" </outport>
<outport> Id = "36"  Name = "RearEstopButton_bool" Width = "1" DataType = "real_T" </outport>
<outport> Id = "37"  Name = "LightsTurnSignalRight_bool" Width = "1" DataType = "real_T" </outport>
<outport> Id = "38"  Name = "LightsTurnSignalLeft_bool" Width = "1" DataType = "real_T" </outport>
<outport> Id = "39"  Name = "HydraulCoolFanEnable_bool" Width = "1" DataType = "real_T" </outport>
<outport> Id = "40"  Name = "RlyCPower24VEnable_bool" Width = "1" DataType = "boolean_T" </outport>
<outport> Id = "41"  Name = "FloatFront_bool" Width = "1" DataType = "real_T" </outport>
<outport> Id = "42"  Name = "FloatRight_bool" Width = "1" DataType = "real_T" </outport>
<outport> Id = "43"  Name = "FloatLeft_bool" Width = "1" DataType = "real_T" </outport>
<outport> Id = "44"  Name = "Ssr2BrakeOut_bool" Width = "1" DataType = "real_T" </outport>
<outport> Id = "45"  Name = "LoadAHydraulPumpEnableOut_bool" Width = "1" DataType = "real_T" </outport>
<outport> Id = "46"  Name = "RlyEStarter_bool" Width = "1" DataType = "boolean_T" </outport>
<outport> Id = "47"  Name = "DriveFwd_bool" Width = "1" DataType = "uint32_T" </outport>
<outport> Id = "48"  Name = "DriveReverse_bool" Width = "1" DataType = "uint32_T" </outport>
<outport> Id = "49"  Name = "SteerRightA_bool" Width = "1" DataType = "real_T" </outport>
<outport> Id = "50"  Name = "SteerLeftA_bool" Width = "1" DataType = "real_T" </outport>
<outport> Id = "51"  Name = "SteerLeftB_bool" Width = "1" DataType = "real_T" </outport>
<outport> Id = "52"  Name = "SteerRightB_bool" Width = "1" DataType = "real_T" </outport>
<outport> Id = "53"  Name = "TracRight_bool" Width = "1" DataType = "real_T" </outport>
<outport> Id = "54"  Name = "TracLeft_bool" Width = "1" DataType = "real_T" </outport>
<outport> Id = "55"  Name = "DeckFrontLift_bool" Width = "1" DataType = "boolean_T" </outport>
<outport> Id = "56"  Name = "DeckFrontLower_bool" Width = "1" DataType = "boolean_T" </outport>
<outport> Id = "57"  Name = "DeckRightLift_bool" Width = "1" DataType = "boolean_T" </outport>
<outport> Id = "58"  Name = "DeckRightLower_bool" Width = "1" DataType = "boolean_T" </outport>
<outport> Id = "59"  Name = "DeckLeftLift_bool" Width = "1" DataType = "boolean_T" </outport>
<outport> Id = "60"  Name = "DeckLeftLower_bool" Width = "1" DataType = "boolean_T" </outport>
<outport> Id = "61"  Name = "NI9426_2Spare1Out_bool" Width = "1" DataType = "real_T" </outport>
<outport> Id = "62"  Name = "NI9426_2Spare2Out_bool" Width = "1" DataType = "real_T" </outport>
<outport> Id = "63"  Name = "NI9426_2Spare3Out_bool" Width = "1" DataType = "real_T" </outport>
<outport> Id = "64"  Name = "NI9426_2Spare4Out_bool" Width = "1" DataType = "real_T" </outport>
<outport> Id = "65"  Name = "NI9426_2Spare5Out_bool" Width = "1" DataType = "real_T" </outport>
<outport> Id = "66"  Name = "NI9426_2Spare6Out_bool" Width = "1" DataType = "real_T" </outport>
<outport> Id = "67"  Name = "NI9426_2Spare7Out_bool" Width = "1" DataType = "real_T" </outport>
<outport> Id = "68"  Name = "NI9426_2Spare8Out_bool" Width = "1" DataType = "real_T" </outport>
<outport> Id = "69"  Name = "NI9426_2Spare9Out_bool" Width = "1" DataType = "real_T" </outport>
<outport> Id = "70"  Name = "NI9426_2Spare10Out_bool" Width = "1" DataType = "real_T" </outport>
<outport> Id = "71"  Name = "NI9426_2Spare11Out_bool" Width = "1" DataType = "real_T" </outport>
<outport> Id = "72"  Name = "NI9426_2Spare12Out_bool" Width = "1" DataType = "real_T" </outport>
<outport> Id = "73"  Name = "NI9426_2Spare13Out_bool" Width = "1" DataType = "real_T" </outport>
<outport> Id = "74"  Name = "NI9426_2Spare14Out_bool" Width = "1" DataType = "real_T" </outport>
<outport> Id = "75"  Name = "NI9426_2Spare15Out_bool" Width = "1" DataType = "real_T" </outport>
<outport> Id = "76"  Name = "NI9426_2Spare16Out_bool" Width = "1" DataType = "real_T" </outport>
<outport> Id = "77"  Name = "DeckUnlatch_bool" Width = "1" DataType = "boolean_T" </outport>
<outport> Id = "78"  Name = "DO1NI9476Mon_bool" Width = "1" DataType = "real_T" </outport>
<outport> Id = "79"  Name = "HydraulicOilLow_bool" Width = "1" DataType = "boolean_T" </outport>
<outport> Id = "80"  Name = "DO3NI9476Mon_bool" Width = "1" DataType = "real_T" </outport>
<outport> Id = "81"  Name = "RightDeckLatched_bool" Width = "1" DataType = "boolean_T" </outport>
<outport> Id = "82"  Name = "LeftDeckLatched_bool" Width = "1" DataType = "boolean_T" </outport>
<outport> Id = "83"  Name = "DO5NI9476Mon_bool" Width = "1" DataType = "real_T" </outport>
<outport> Id = "84"  Name = "FrontDeckLatched_bool" Width = "1" DataType = "boolean_T" </outport>
<outport> Id = "85"  Name = "DO7NI9476Mon_bool" Width = "1" DataType = "real_T" </outport>
<outport> Id = "86"  Name = "DO8NI9476Mon_bool" Width = "1" DataType = "real_T" </outport>
<outport> Id = "87"  Name = "DO9NI9476Mon_bool" Width = "1" DataType = "real_T" </outport>
<outport> Id = "88"  Name = "DO11NI9476Mon_bool" Width = "1" DataType = "real_T" </outport>
<outport> Id = "89"  Name = "DO12NI9476Mon_bool" Width = "1" DataType = "real_T" </outport>
<outport> Id = "90"  Name = "DO13NI9476Mon_bool" Width = "1" DataType = "real_T" </outport>
<outport> Id = "91"  Name = "DO14NI9476Mon_bool" Width = "1" DataType = "real_T" </outport>
<outport> Id = "92"  Name = "DO15NI9476Mon_bool" Width = "1" DataType = "real_T" </outport>
<outport> Id = "93"  Name = "DO16NI9476Mon_bool" Width = "1" DataType = "real_T" </outport>
<outport> Id = "94"  Name = "DO17NI9476Mon_bool" Width = "1" DataType = "real_T" </outport>
<outport> Id = "95"  Name = "DO18NI9476Mon_bool" Width = "1" DataType = "real_T" </outport>
<outport> Id = "96"  Name = "DO19NI9476Mon_bool" Width = "1" DataType = "real_T" </outport>
<outport> Id = "97"  Name = "DO20NI9476Mon_bool" Width = "1" DataType = "real_T" </outport>
<outport> Id = "98"  Name = "DO21NI9476Mon_bool" Width = "1" DataType = "real_T" </outport>
<outport> Id = "99"  Name = "EStopCab_bool" Width = "1" DataType = "real_T" </outport>
<outport> Id = "100"  Name = "ElectSeatSwitch_bool" Width = "1" DataType = "real_T" </outport>
<outport> Id = "101"  Name = "MachineEnableSeatSwitch_bool" Width = "1" DataType = "real_T" </outport>
<outport> Id = "102"  Name = "AutonomyEnableSwitch_bool" Width = "1" DataType = "real_T" </outport>
<outport> Id = "103"  Name = "DO26NI9476Mon_bool" Width = "1" DataType = "real_T" </outport>
<outport> Id = "104"  Name = "MainKeyOutSwitch_bool" Width = "1" DataType = "real_T" </outport>
<outport> Id = "105"  Name = "DO28NI9476Mon_bool" Width = "1" DataType = "real_T" </outport>
<outport> Id = "106"  Name = "AutonomyRemoteEstopSw_bool" Width = "1" DataType = "real_T" </outport>
<outport> Id = "107"  Name = "DO30NI9476Mon_bool" Width = "1" DataType = "real_T" </outport>
<outport> Id = "108"  Name = "DO31NI9476Mon_bool" Width = "1" DataType = "real_T" </outport>
<outport> Id = "109"  Name = "NI9426_2Spare17Out_bool" Width = "1" DataType = "real_T" </outport>
<outport> Id = "110"  Name = "TorqueLeftWheel_nm" Width = "1" DataType = "real_T" </outport>
<outport> Id = "111"  Name = "TorqueRightWheel_nm" Width = "1" DataType = "real_T" </outport>
<outport> Id = "112"  Name = "TorqueSteering_nm" Width = "1" DataType = "real_T" </outport>
<outport> Id = "113"  Name = "PowerOutMon24v_Vdc" Width = "1" DataType = "real_T" </outport>
<outport> Id = "114"  Name = "PowerOutMon12v_Vdc" Width = "1" DataType = "real_T" </outport>
<outport> Id = "115"  Name = "PowerOutMon5v_Vdc" Width = "1" DataType = "real_T" </outport>
<outport> Id = "116"  Name = "DeckLiftPFrntOut_psi" Width = "1" DataType = "real_T" </outport>
<outport> Id = "117"  Name = "AO0NI9264_1Mon2_int" Width = "1" DataType = "real_T" </outport>
<outport> Id = "118"  Name = "AO0NI9264_1Mon1_int" Width = "1" DataType = "real_T" </outport>
<outport> Id = "119"  Name = "DeckLiftPRightOut_psi" Width = "1" DataType = "real_T" </outport>
<outport> Id = "120"  Name = "DeckLiftPLftOut_psi" Width = "1" DataType = "real_T" </outport>
<outport> Id = "121"  Name = "BrakeHydraulPrsOut_psi" Width = "1" DataType = "real_T" </outport>
<outport> Id = "122"  Name = "HeatExchangeTemp_degC" Width = "1" DataType = "real_T" </outport>
<outport> Id = "123"  Name = "FrontDeckAngleSns_deg" Width = "1" DataType = "real_T" </outport>
<outport> Id = "124"  Name = "RightDeckAngleSns_deg" Width = "1" DataType = "real_T" </outport>
<outport> Id = "125"  Name = "LeftDeckAngleSns_deg" Width = "1" DataType = "real_T" </outport>
<outport> Id = "126"  Name = "AO0NI9264_1Mon3_int" Width = "1" DataType = "real_T" </outport>
<outport> Id = "127"  Name = "AO0NI9264_1Mon4_int" Width = "1" DataType = "real_T" </outport>
<outport> Id = "128"  Name = "ControlBoxTemp_degC" Width = "1" DataType = "real_T" </outport>
</portlist>
